====== IOCTL stream: ======
[driver version 6.4.4.310723]
[seq 1] [thread 0] in={
    .command = gcvHAL_VERSION,
    .hardwareType = gcvHARDWARE_INVALID,
    .coreIndex = 0x0,
    .engine = gcvENGINE_RENDER,
    .ignoreTLS = 1,
    .commitMutex = 0,
    .u = {
        .Version = {
            .major = 0,
            .minor = 0,
            .patch = 0,
            .build = 0x0
        }
    }
}
[seq 2] [thread 0] out={
    .command = gcvHAL_VERSION,
    .hardwareType = gcvHARDWARE_INVALID,
    .coreIndex = 0x0,
    .status = gcvSTATUS_OK,
    .engine = gcvENGINE_RENDER,
    .ignoreTLS = 1,
    .commitMutex = 0,
    .u = {
        .Version = {
            .major = 6,
            .minor = 4,
            .patch = 4,
            .build = 0x4bdc3
        }
    }
}
/* ================================================ */
[seq 3] [thread 0] in={
    .command = gcvHAL_CHIP_INFO,
    .hardwareType = gcvHARDWARE_INVALID,
    .coreIndex = 0x0,
    .engine = gcvENGINE_RENDER,
    .ignoreTLS = 1,
    .commitMutex = 0,
    .u = {
        .ChipInfo = {
            .count = 6,
            .types = ,
            .ids = ,
            .coreIndexs = 
        }
    }
}
[seq 4] [thread 0] out={
    .command = gcvHAL_CHIP_INFO,
    .hardwareType = gcvHARDWARE_INVALID,
    .coreIndex = 0x0,
    .status = gcvSTATUS_OK,
    .engine = gcvENGINE_RENDER,
    .ignoreTLS = 1,
    .commitMutex = 0,
    .u = {
        .ChipInfo = {
            .count = 1,
            .types = ,
            .ids = ,
            .coreIndexs = 
        }
    }
}
/* ================================================ */
[seq 5] [thread 0] in={
    .command = gcvHAL_QUERY_VIDEO_MEMORY,
    .hardwareType = gcvHARDWARE_3D,
    .coreIndex = 0x0,
    .engine = gcvENGINE_RENDER,
    .ignoreTLS = 1,
    .commitMutex = 0,
    .u = {
    }
}
[seq 6] [thread 0] out={
    .command = gcvHAL_QUERY_VIDEO_MEMORY,
    .hardwareType = gcvHARDWARE_3D,
    .coreIndex = 0x0,
    .status = gcvSTATUS_OK,
    .engine = gcvENGINE_RENDER,
    .ignoreTLS = 1,
    .commitMutex = 0,
    .u = {
        .QueryVideoMemory = {
            .internalPhysName = 0x0,
            .internalSize = 0x0,
            .externalPhysName = 0x0,
            .externalSize = 0x0,
            .contiguousPhysName = 0x4,
            .contiguousSize = 0x400000,
            .exclusivePhysName = 0x0,
            .exclusiveSize = 0x0
        }
    }
}
/* ================================================ */
[seq 7] [thread 0] in={
    .command = gcvHAL_QUERY_CHIP_IDENTITY,
    .hardwareType = gcvHARDWARE_VIP,
    .coreIndex = 0x0,
    .engine = 93,
    .ignoreTLS = 0,
    .commitMutex = -1810980712,
    .u = {
    }
}
[seq 8] [thread 0] out={
    .command = gcvHAL_QUERY_CHIP_IDENTITY,
    .hardwareType = gcvHARDWARE_VIP,
    .coreIndex = 0x0,
    .status = gcvSTATUS_OK,
    .engine = 93,
    .ignoreTLS = 0,
    .commitMutex = -1810980712,
    .u = {
        .QueryChipIdentity = {
            .chipModel = gcv8000,
            .chipRevision = 0x7120,
            .chipDate = 0x20180807,
            .chipFeatures = 0xe0287cad /* FAST_CLEAR PIPE_3D DXT_TEXTURE_COMPRESSION Z_COMPRESSION MSAA ETC1_TEXTURE_COMPRESSION FAST_SCALER HIGH_DYNAMIC_RANGE YUV420_TILER MODULE_CG BYTE_WRITE_2D YUY2_AVERAGING BYTE_WRITE_3D RS_YUV_TARGET 32_BIT_INDICES */,
            .chipMinorFeatures = 0xc9799eff /* FLIP_Y DUAL_RETURN_BUS ENDIANNESS_CONFIG TEXTURE_8K CORRECT_TEXTURE_CONVERTER SPECIAL_MSAA_LOD FAST_CLEAR_FLUSH 2DPE20 RENDERTARGET_8K 2BITPERTILE SEPARATE_TILE_STATUS_WHEN_INTERLEAVED SUPER_TILED COMPRESSION_FIFO_FIXED HAS_SIGN_FLOOR_CEIL SHADER_HAS_W HAS_SQRT_TRIG MORE_MINOR_FEATURES MC20 BUG_FIXES0 HZ CORRECT_STENCIL ENHANCE_VR */,
            .chipMinorFeatures1 = 0xfefbfadb /* RSUV_SWIZZLE V2_COMPRESSION EXTRA_EVENT_STATES NO_STRIPING_NEEDED BUG_FIXES3 AUTO_DISABLE DISABLE_PE_GATING HALF_FLOAT PIXEL_DITHER TWO_STENCIL_REFERENCE EXTENDED_PIXEL_FORMAT CORRECT_MIN_MAX_DEPTH 2D_DITHER BUG_FIXES5 NEW_FP TEXTURE_HALIGN NON_POWER_OF_TWO LINEAR_TEXTURE_SUPPORT HALTI0 NEGATIVE_LOG_FIX RESOLVE_OFFSET OK_TO_GATE_AXI_CLOCK MMU_VERSION WIDE_LINE BUG_FIXES6 FC_FLUSH_STALL */,
            .chipMinorFeatures2 = 0xeb9d4fbf /* LINE_LOOP LOGIC_OP SEAMLESS_CUBE_MAP SUPERTILED_TEXTURE LINEAR_PE RECT_PRIMITIVE CORRECT_AUTO_DISABLE_COUNT PE_SWIZZLE END_EVENT S1S8 HALTI1 DYNAMIC_FREQUENCY_SCALING FULL_DIRECTFB THREAD_WALKER_IN_PS TILE_FILLER YUV_STANDARD FLUSH_FIXED_2D INTERLEAVER MIXED_STREAMS BUG_FIXES7 TEXTURE_TILED_READ DECOMPRESS_Z16 BUG_FIXES8 */,
            .chipMinorFeatures3 = 0xedfffcff /* ROTATION_STALL_FIX OCL_ONLY 2D_MULTI_SOURCE_BLT_EX INSTRUCTION_CACHE GEOMETRY_SHADER TEX_COMPRESSION_SUPERTILED GENERICS BUG_FIXES9 BUG_FIXES10 UNIFIED_SAMPLERS BUG_FIXES11 PERFORMANCE_COUNTERS HAS_FAST_TRANSCENDENTALS BUG_FIXES12 BUG_FIXES13 DE_ENHANCEMENTS1 ACE TX_ENHANCEMENTS1 SH_ENHANCEMENTS1 SH_ENHANCEMENTS2 PE_ENHANCEMENTS1 2D_FC_SOURCE BUG_FIXES_14 NEW_HZ PE_DITHER_FIX SH_ENHANCEMENTS3 SH_ENHANCEMENTS4 TX_ENHANCEMENTS2 */,
            .chipMinorFeatures4 = 0xdb0dafc7 /* FE_ENHANCEMENTS1 PE_ENHANCEMENTS2 FRUSTUM_CLIP_FIX SINGLE_BUFFER HI_ENHANCEMENTS_1 TX_ENHANCEMENTS_3 SH_ENHANCEMENTS_5 FE_ENHANCEMENTS_2 TX_LERP_PRECISION_FIX TEXTURE_ASTC MC_ENHANCEMENTS_1 HALTI2 SMALL_MSAA BUG_FIXES_17 ZFIXES BUG_FIXES18 PROBE MEDIUM_PRECISION BUG_FIXES19 SH_ENHANCEMENTS6 */,
            .chipMinorFeatures5 = 0xbb5ac733 /* SH_ENHANCEMENTS7 BUG_FIXES20 EEZ BUG_FIXES21 BUG_FIXES22 HALTI3 TESSELATION_SHADERS HALTI4 RA_WRITE_DEPTH HAS_PRODUCTID S8_MSAA_COMPRESSION PE_DITHER_FIX2 FE_ALLOW_RND_VTX_CNT TX_6BIT_FRAC FE_ALLOW_STALL_PREFETCH_ENG RS_DEPTHSTENCIL_NATIVE_SUPPORT V2_MSAA_COMP_FIX HALTI5 BLT_ENGINE */,
            .chipMinorFeatures6 = 0x1 /* BUG_FIXES_23 */,
            .streamCount = 0x8,
            .pixelPipes = 0x1,
            .resolvePipes = 0x0,
            .instructionCount = 0x200,
            .numConstants = 0x140,
            .varyingsCount = 0x10,
            .gpuCoreCount = 0x1,
            .clusterAvailMask = 0x0,
            .productID = 0x45080009,
            .chipFlags = gcvCHIP_AXI_BUS128_BITS,
            .ecoID = 0x0,
            .customerID = 0x88,
            .sRAMBases = ,
            .sRAMSizes = ,
            .platformFlagBits = 0x0,
            .registerAPB = 0x300000,
            .nnClusterNum = 0x1
        }
    }
}
/* ================================================ */
[seq 9] [thread 0] in={
    .command = gcvHAL_QUERY_CHIP_OPTION,
    .hardwareType = gcvHARDWARE_VIP,
    .coreIndex = 0x0,
    .engine = 93,
    .ignoreTLS = 0,
    .commitMutex = -1810980712,
    .u = {
    }
}
[seq 10] [thread 0] out={
    .command = gcvHAL_QUERY_CHIP_OPTION,
    .hardwareType = gcvHARDWARE_VIP,
    .coreIndex = 0x0,
    .status = gcvSTATUS_OK,
    .engine = 93,
    .ignoreTLS = 0,
    .commitMutex = -1810980712,
    .u = {
    }
}
/* ================================================ */
[seq 11] [thread 0] in={
    .command = gcvHAL_ATTACH,
    .hardwareType = gcvHARDWARE_VIP,
    .coreIndex = 0x0,
    .engine = 84887982,
    .ignoreTLS = 0,
    .commitMutex = -1812502600,
    .u = {
        .Attach = {
            .context = 0x94749690,
            .maxState = 0x100000001,
            .numStates = 0x0,
            .map = 0,
            .logicals = ,
            .bytes = 0xd0cce800
        }
    }
}
[seq 12] [thread 0] out={
    .command = gcvHAL_ATTACH,
    .hardwareType = gcvHARDWARE_VIP,
    .coreIndex = 0x0,
    .status = gcvSTATUS_OK,
    .engine = 84887982,
    .ignoreTLS = 0,
    .commitMutex = -1812502600,
    .u = {
        .Attach = {
            .context = 0xc9,
            .maxState = 0xdd00,
            .numStates = 0x864,
            .map = 0,
            .logicals = ,
            .bytes = 0xd0cce800
        }
    }
}
/* ================================================ */
[seq 13] [thread 0] in={
    .command = gcvHAL_USER_SIGNAL,
    .hardwareType = gcvHARDWARE_VIP,
    .coreIndex = 0x0,
    .engine = gcvENGINE_RENDER,
    .ignoreTLS = 0,
    .commitMutex = 0,
    .u = {
        .UserSignal = {
            .command = gcvUSER_SIGNAL_CREATE,
            .id = 0,
            .manualReset = 0,
            .wait = 0x0,
            .state = 0
        }
    }
}
[seq 14] [thread 0] out={
    .command = gcvHAL_USER_SIGNAL,
    .hardwareType = gcvHARDWARE_VIP,
    .coreIndex = 0x0,
    .status = gcvSTATUS_OK,
    .engine = gcvENGINE_RENDER,
    .ignoreTLS = 0,
    .commitMutex = 0,
    .u = {
        .UserSignal = {
            .command = gcvUSER_SIGNAL_CREATE,
            .id = 22488
        }
    }
}
/* ================================================ */
[seq 15] [thread 0] in={
    .command = gcvHAL_GET_BASE_ADDRESS,
    .hardwareType = gcvHARDWARE_VIP,
    .coreIndex = 0x0,
    .engine = gcvENGINE_RENDER,
    .ignoreTLS = 0,
    .commitMutex = 0,
    .u = {
    }
}
[seq 16] [thread 0] out={
    .command = gcvHAL_GET_BASE_ADDRESS,
    .hardwareType = gcvHARDWARE_VIP,
    .coreIndex = 0x0,
    .status = gcvSTATUS_OK,
    .engine = gcvENGINE_RENDER,
    .ignoreTLS = 0,
    .commitMutex = 0,
    .u = {
        .GetBaseAddress = {
            .baseAddress = 0x0,
            .flatMappingRangeCount = 0x2,
            .flatMappingRanges = 
        }
    }
}
/* ================================================ */
[seq 17] [thread 0] in={
    .command = gcvHAL_USER_SIGNAL,
    .hardwareType = gcvHARDWARE_VIP,
    .coreIndex = 0x0,
    .engine = gcvENGINE_RENDER,
    .ignoreTLS = 0,
    .commitMutex = 0,
    .u = {
        .UserSignal = {
            .command = gcvUSER_SIGNAL_CREATE,
            .id = 0,
            .manualReset = 0,
            .wait = 0x0,
            .state = 0
        }
    }
}
[seq 18] [thread 0] out={
    .command = gcvHAL_USER_SIGNAL,
    .hardwareType = gcvHARDWARE_VIP,
    .coreIndex = 0x0,
    .status = gcvSTATUS_OK,
    .engine = gcvENGINE_RENDER,
    .ignoreTLS = 0,
    .commitMutex = 0,
    .u = {
        .UserSignal = {
            .command = gcvUSER_SIGNAL_CREATE,
            .id = 22489
        }
    }
}
/* ================================================ */
[seq 19] [thread 0] in={
    .command = gcvHAL_USER_SIGNAL,
    .hardwareType = gcvHARDWARE_VIP,
    .coreIndex = 0x0,
    .engine = gcvENGINE_RENDER,
    .ignoreTLS = 0,
    .commitMutex = 0,
    .u = {
        .UserSignal = {
            .command = gcvUSER_SIGNAL_SIGNAL,
            .id = 22489,
            .manualReset = 0,
            .wait = 0x0,
            .state = 1
        }
    }
}
[seq 20] [thread 0] out={
    .command = gcvHAL_USER_SIGNAL,
    .hardwareType = gcvHARDWARE_VIP,
    .coreIndex = 0x0,
    .status = gcvSTATUS_OK,
    .engine = gcvENGINE_RENDER,
    .ignoreTLS = 0,
    .commitMutex = 0,
    .u = {
        .UserSignal = {
            .command = gcvUSER_SIGNAL_SIGNAL,
            .id = 22489
        }
    }
}
/* ================================================ */
[seq 21] [thread 0] in={
    .command = gcvHAL_ALLOCATE_LINEAR_VIDEO_MEMORY,
    .hardwareType = gcvHARDWARE_VIP,
    .coreIndex = 0x0,
    .engine = gcvENGINE_RENDER,
    .ignoreTLS = 0,
    .commitMutex = 0,
    .u = {
        .AllocateLinearVideoMemory = {
            .bytes = 0x20000,
            .alignment = 0x8,
            .type = 0x10,
            .flag = 0x0,
            .pool = 0x1,
            .sRAMIndex = 0,
            .extSRAMIndex = 0
        }
    }
}
[seq 22] [thread 0] out={
    .command = gcvHAL_ALLOCATE_LINEAR_VIDEO_MEMORY,
    .hardwareType = gcvHARDWARE_VIP,
    .coreIndex = 0x0,
    .status = gcvSTATUS_OK,
    .engine = gcvENGINE_RENDER,
    .ignoreTLS = 0,
    .commitMutex = 0,
    .u = {
        .AllocateLinearVideoMemory = {
            .node = 0x1 /* ADDR_16_A */
        }
    }
}
/* ================================================ */
[seq 23] [thread 0] in={
    .command = gcvHAL_LOCK_VIDEO_MEMORY,
    .hardwareType = gcvHARDWARE_VIP,
    .coreIndex = 0x0,
    .engine = gcvENGINE_RENDER,
    .ignoreTLS = 0,
    .commitMutex = 0,
    .u = {
        .LockVideoMemory = {
            .node = 0x1 /* ADDR_16_A */,
            .cacheable = 0,
            .gid = 0x0,
            .op = 3
        }
    }
}
[seq 24] [thread 0] out={
    .command = gcvHAL_LOCK_VIDEO_MEMORY,
    .hardwareType = gcvHARDWARE_VIP,
    .coreIndex = 0x0,
    .status = gcvSTATUS_OK,
    .engine = gcvENGINE_RENDER,
    .ignoreTLS = 0,
    .commitMutex = 0,
    .u = {
        .LockVideoMemory = {
            .cacheable = 0,
            .address = 0x18008c28 /* ADDR_16_A */,
            .memory = 0xffff92608c28,
            .gid = 0x0,
            .physicalAddress = 0x18008c28,
            .op = 3
        }
    }
}
/* ================================================ */
[seq 25] [thread 0] in={
    .command = gcvHAL_USER_SIGNAL,
    .hardwareType = gcvHARDWARE_VIP,
    .coreIndex = 0x0,
    .engine = gcvENGINE_RENDER,
    .ignoreTLS = 0,
    .commitMutex = 0,
    .u = {
        .UserSignal = {
            .command = gcvUSER_SIGNAL_CREATE,
            .id = 0,
            .manualReset = 0,
            .wait = 0x0,
            .state = 0
        }
    }
}
[seq 26] [thread 0] out={
    .command = gcvHAL_USER_SIGNAL,
    .hardwareType = gcvHARDWARE_VIP,
    .coreIndex = 0x0,
    .status = gcvSTATUS_OK,
    .engine = gcvENGINE_RENDER,
    .ignoreTLS = 0,
    .commitMutex = 0,
    .u = {
        .UserSignal = {
            .command = gcvUSER_SIGNAL_CREATE,
            .id = 22492
        }
    }
}
/* ================================================ */
[seq 27] [thread 0] in={
    .command = gcvHAL_USER_SIGNAL,
    .hardwareType = gcvHARDWARE_VIP,
    .coreIndex = 0x0,
    .engine = gcvENGINE_RENDER,
    .ignoreTLS = 0,
    .commitMutex = 0,
    .u = {
        .UserSignal = {
            .command = gcvUSER_SIGNAL_SIGNAL,
            .id = 22492,
            .manualReset = 0,
            .wait = 0x0,
            .state = 1
        }
    }
}
[seq 28] [thread 0] out={
    .command = gcvHAL_USER_SIGNAL,
    .hardwareType = gcvHARDWARE_VIP,
    .coreIndex = 0x0,
    .status = gcvSTATUS_OK,
    .engine = gcvENGINE_RENDER,
    .ignoreTLS = 0,
    .commitMutex = 0,
    .u = {
        .UserSignal = {
            .command = gcvUSER_SIGNAL_SIGNAL,
            .id = 22492
        }
    }
}
/* ================================================ */
[seq 29] [thread 0] in={
    .command = gcvHAL_ALLOCATE_LINEAR_VIDEO_MEMORY,
    .hardwareType = gcvHARDWARE_VIP,
    .coreIndex = 0x0,
    .engine = gcvENGINE_RENDER,
    .ignoreTLS = 0,
    .commitMutex = 0,
    .u = {
        .AllocateLinearVideoMemory = {
            .bytes = 0x20000,
            .alignment = 0x8,
            .type = 0x10,
            .flag = 0x0,
            .pool = 0x1,
            .sRAMIndex = 0,
            .extSRAMIndex = 0
        }
    }
}
[seq 30] [thread 0] out={
    .command = gcvHAL_ALLOCATE_LINEAR_VIDEO_MEMORY,
    .hardwareType = gcvHARDWARE_VIP,
    .coreIndex = 0x0,
    .status = gcvSTATUS_OK,
    .engine = gcvENGINE_RENDER,
    .ignoreTLS = 0,
    .commitMutex = 0,
    .u = {
        .AllocateLinearVideoMemory = {
            .node = 0x2 /* ADDR_16_B */
        }
    }
}
/* ================================================ */
[seq 31] [thread 0] in={
    .command = gcvHAL_LOCK_VIDEO_MEMORY,
    .hardwareType = gcvHARDWARE_VIP,
    .coreIndex = 0x0,
    .engine = gcvENGINE_RENDER,
    .ignoreTLS = 0,
    .commitMutex = 0,
    .u = {
        .LockVideoMemory = {
            .node = 0x2 /* ADDR_16_B */,
            .cacheable = 0,
            .gid = 0x0,
            .op = 3
        }
    }
}
[seq 32] [thread 0] out={
    .command = gcvHAL_LOCK_VIDEO_MEMORY,
    .hardwareType = gcvHARDWARE_VIP,
    .coreIndex = 0x0,
    .status = gcvSTATUS_OK,
    .engine = gcvENGINE_RENDER,
    .ignoreTLS = 0,
    .commitMutex = 0,
    .u = {
        .LockVideoMemory = {
            .cacheable = 0,
            .address = 0x18028c28 /* ADDR_16_B */,
            .memory = 0xffff92628c28,
            .gid = 0x0,
            .physicalAddress = 0x18028c28,
            .op = 3
        }
    }
}
/* ================================================ */
[seq 33] [thread 0] in={
    .command = gcvHAL_USER_SIGNAL,
    .hardwareType = gcvHARDWARE_VIP,
    .coreIndex = 0x0,
    .engine = gcvENGINE_RENDER,
    .ignoreTLS = 0,
    .commitMutex = 0,
    .u = {
        .UserSignal = {
            .command = gcvUSER_SIGNAL_WAIT,
            .id = 22489,
            .manualReset = 0,
            .wait = 0x0,
            .state = 0
        }
    }
}
[seq 34] [thread 0] out={
    .command = gcvHAL_USER_SIGNAL,
    .hardwareType = gcvHARDWARE_VIP,
    .coreIndex = 0x0,
    .status = gcvSTATUS_OK,
    .engine = gcvENGINE_RENDER,
    .ignoreTLS = 0,
    .commitMutex = 0,
    .u = {
        .UserSignal = {
            .command = gcvUSER_SIGNAL_WAIT,
            .id = 22489
        }
    }
}
/* ================================================ */
[seq 35] [thread 0] in={
    .command = gcvHAL_QUERY_CHIP_FREQUENCY,
    .hardwareType = gcvHARDWARE_VIP,
    .coreIndex = 0x0,
    .engine = gcvENGINE_RENDER,
    .ignoreTLS = 0,
    .commitMutex = -1114243728,
    .u = {
        .QueryChipFrequency = {
            .mcClk = 0x0,
            .shClk = 0x0
        }
    }
}
[seq 36] [thread 0] out={
    .command = gcvHAL_QUERY_CHIP_FREQUENCY,
    .hardwareType = gcvHARDWARE_VIP,
    .coreIndex = 0x0,
    .status = gcvSTATUS_OK,
    .engine = gcvENGINE_RENDER,
    .ignoreTLS = 0,
    .commitMutex = -1114243728,
    .u = {
        .QueryChipFrequency = {
            .mcClk = 0x2faf1075,
            .shClk = 0x2faf1b27
        }
    }
}
/* ================================================ */
[seq 37] [thread 0] in={
    .command = gcvHAL_QUERY_CHIP_IDENTITY,
    .hardwareType = gcvHARDWARE_VIP,
    .coreIndex = 0x0,
    .engine = 93,
    .ignoreTLS = 0,
    .commitMutex = -1810980712,
    .u = {
    }
}
[seq 38] [thread 0] out={
    .command = gcvHAL_QUERY_CHIP_IDENTITY,
    .hardwareType = gcvHARDWARE_VIP,
    .coreIndex = 0x0,
    .status = gcvSTATUS_OK,
    .engine = 93,
    .ignoreTLS = 0,
    .commitMutex = -1810980712,
    .u = {
        .QueryChipIdentity = {
            .chipModel = gcv8000,
            .chipRevision = 0x7120,
            .chipDate = 0x20180807,
            .chipFeatures = 0xe0287cad /* FAST_CLEAR PIPE_3D DXT_TEXTURE_COMPRESSION Z_COMPRESSION MSAA ETC1_TEXTURE_COMPRESSION FAST_SCALER HIGH_DYNAMIC_RANGE YUV420_TILER MODULE_CG BYTE_WRITE_2D YUY2_AVERAGING BYTE_WRITE_3D RS_YUV_TARGET 32_BIT_INDICES */,
            .chipMinorFeatures = 0xc9799eff /* FLIP_Y DUAL_RETURN_BUS ENDIANNESS_CONFIG TEXTURE_8K CORRECT_TEXTURE_CONVERTER SPECIAL_MSAA_LOD FAST_CLEAR_FLUSH 2DPE20 RENDERTARGET_8K 2BITPERTILE SEPARATE_TILE_STATUS_WHEN_INTERLEAVED SUPER_TILED COMPRESSION_FIFO_FIXED HAS_SIGN_FLOOR_CEIL SHADER_HAS_W HAS_SQRT_TRIG MORE_MINOR_FEATURES MC20 BUG_FIXES0 HZ CORRECT_STENCIL ENHANCE_VR */,
            .chipMinorFeatures1 = 0xfefbfadb /* RSUV_SWIZZLE V2_COMPRESSION EXTRA_EVENT_STATES NO_STRIPING_NEEDED BUG_FIXES3 AUTO_DISABLE DISABLE_PE_GATING HALF_FLOAT PIXEL_DITHER TWO_STENCIL_REFERENCE EXTENDED_PIXEL_FORMAT CORRECT_MIN_MAX_DEPTH 2D_DITHER BUG_FIXES5 NEW_FP TEXTURE_HALIGN NON_POWER_OF_TWO LINEAR_TEXTURE_SUPPORT HALTI0 NEGATIVE_LOG_FIX RESOLVE_OFFSET OK_TO_GATE_AXI_CLOCK MMU_VERSION WIDE_LINE BUG_FIXES6 FC_FLUSH_STALL */,
            .chipMinorFeatures2 = 0xeb9d4fbf /* LINE_LOOP LOGIC_OP SEAMLESS_CUBE_MAP SUPERTILED_TEXTURE LINEAR_PE RECT_PRIMITIVE CORRECT_AUTO_DISABLE_COUNT PE_SWIZZLE END_EVENT S1S8 HALTI1 DYNAMIC_FREQUENCY_SCALING FULL_DIRECTFB THREAD_WALKER_IN_PS TILE_FILLER YUV_STANDARD FLUSH_FIXED_2D INTERLEAVER MIXED_STREAMS BUG_FIXES7 TEXTURE_TILED_READ DECOMPRESS_Z16 BUG_FIXES8 */,
            .chipMinorFeatures3 = 0xedfffcff /* ROTATION_STALL_FIX OCL_ONLY 2D_MULTI_SOURCE_BLT_EX INSTRUCTION_CACHE GEOMETRY_SHADER TEX_COMPRESSION_SUPERTILED GENERICS BUG_FIXES9 BUG_FIXES10 UNIFIED_SAMPLERS BUG_FIXES11 PERFORMANCE_COUNTERS HAS_FAST_TRANSCENDENTALS BUG_FIXES12 BUG_FIXES13 DE_ENHANCEMENTS1 ACE TX_ENHANCEMENTS1 SH_ENHANCEMENTS1 SH_ENHANCEMENTS2 PE_ENHANCEMENTS1 2D_FC_SOURCE BUG_FIXES_14 NEW_HZ PE_DITHER_FIX SH_ENHANCEMENTS3 SH_ENHANCEMENTS4 TX_ENHANCEMENTS2 */,
            .chipMinorFeatures4 = 0xdb0dafc7 /* FE_ENHANCEMENTS1 PE_ENHANCEMENTS2 FRUSTUM_CLIP_FIX SINGLE_BUFFER HI_ENHANCEMENTS_1 TX_ENHANCEMENTS_3 SH_ENHANCEMENTS_5 FE_ENHANCEMENTS_2 TX_LERP_PRECISION_FIX TEXTURE_ASTC MC_ENHANCEMENTS_1 HALTI2 SMALL_MSAA BUG_FIXES_17 ZFIXES BUG_FIXES18 PROBE MEDIUM_PRECISION BUG_FIXES19 SH_ENHANCEMENTS6 */,
            .chipMinorFeatures5 = 0xbb5ac733 /* SH_ENHANCEMENTS7 BUG_FIXES20 EEZ BUG_FIXES21 BUG_FIXES22 HALTI3 TESSELATION_SHADERS HALTI4 RA_WRITE_DEPTH HAS_PRODUCTID S8_MSAA_COMPRESSION PE_DITHER_FIX2 FE_ALLOW_RND_VTX_CNT TX_6BIT_FRAC FE_ALLOW_STALL_PREFETCH_ENG RS_DEPTHSTENCIL_NATIVE_SUPPORT V2_MSAA_COMP_FIX HALTI5 BLT_ENGINE */,
            .chipMinorFeatures6 = 0x1 /* BUG_FIXES_23 */,
            .streamCount = 0x8,
            .pixelPipes = 0x1,
            .resolvePipes = 0x0,
            .instructionCount = 0x200,
            .numConstants = 0x140,
            .varyingsCount = 0x10,
            .gpuCoreCount = 0x1,
            .clusterAvailMask = 0x0,
            .productID = 0x45080009,
            .chipFlags = gcvCHIP_AXI_BUS128_BITS,
            .ecoID = 0x0,
            .customerID = 0x88,
            .sRAMBases = ,
            .sRAMSizes = ,
            .platformFlagBits = 0x0,
            .registerAPB = 0x300000,
            .nnClusterNum = 0x1
        }
    }
}
/* ================================================ */
[seq 39] [thread 0] in={
    .command = gcvHAL_QUERY_CHIP_OPTION,
    .hardwareType = gcvHARDWARE_VIP,
    .coreIndex = 0x0,
    .engine = 93,
    .ignoreTLS = 0,
    .commitMutex = -1810980712,
    .u = {
    }
}
[seq 40] [thread 0] out={
    .command = gcvHAL_QUERY_CHIP_OPTION,
    .hardwareType = gcvHARDWARE_VIP,
    .coreIndex = 0x0,
    .status = gcvSTATUS_OK,
    .engine = 93,
    .ignoreTLS = 0,
    .commitMutex = -1810980712,
    .u = {
    }
}
/* ================================================ */
[seq 41] [thread 0] in={
    .command = gcvHAL_ATTACH,
    .hardwareType = gcvHARDWARE_VIP,
    .coreIndex = 0x0,
    .engine = 93,
    .ignoreTLS = 0,
    .commitMutex = -1810980712,
    .u = {
        .Attach = {
            .context = 0x0,
            .maxState = 0x100000001,
            .numStates = 0x0,
            .map = 0,
            .logicals = ,
            .bytes = 0x0
        }
    }
}
[seq 42] [thread 0] out={
    .command = gcvHAL_ATTACH,
    .hardwareType = gcvHARDWARE_VIP,
    .coreIndex = 0x0,
    .status = gcvSTATUS_OK,
    .engine = 93,
    .ignoreTLS = 0,
    .commitMutex = -1810980712,
    .u = {
        .Attach = {
            .context = 0xca,
            .maxState = 0xdd00,
            .numStates = 0x864,
            .map = 0,
            .logicals = ,
            .bytes = 0x0
        }
    }
}
/* ================================================ */
[seq 43] [thread 0] in={
    .command = gcvHAL_USER_SIGNAL,
    .hardwareType = gcvHARDWARE_VIP,
    .coreIndex = 0x0,
    .engine = gcvENGINE_RENDER,
    .ignoreTLS = 0,
    .commitMutex = 0,
    .u = {
        .UserSignal = {
            .command = gcvUSER_SIGNAL_CREATE,
            .id = 0,
            .manualReset = 0,
            .wait = 0x0,
            .state = 0
        }
    }
}
[seq 44] [thread 0] out={
    .command = gcvHAL_USER_SIGNAL,
    .hardwareType = gcvHARDWARE_VIP,
    .coreIndex = 0x0,
    .status = gcvSTATUS_OK,
    .engine = gcvENGINE_RENDER,
    .ignoreTLS = 0,
    .commitMutex = 0,
    .u = {
        .UserSignal = {
            .command = gcvUSER_SIGNAL_CREATE,
            .id = 22501
        }
    }
}
/* ================================================ */
[seq 45] [thread 0] in={
    .command = gcvHAL_GET_BASE_ADDRESS,
    .hardwareType = gcvHARDWARE_VIP,
    .coreIndex = 0x0,
    .engine = gcvENGINE_RENDER,
    .ignoreTLS = 0,
    .commitMutex = 0,
    .u = {
    }
}
[seq 46] [thread 0] out={
    .command = gcvHAL_GET_BASE_ADDRESS,
    .hardwareType = gcvHARDWARE_VIP,
    .coreIndex = 0x0,
    .status = gcvSTATUS_OK,
    .engine = gcvENGINE_RENDER,
    .ignoreTLS = 0,
    .commitMutex = 0,
    .u = {
        .GetBaseAddress = {
            .baseAddress = 0x0,
            .flatMappingRangeCount = 0x2,
            .flatMappingRanges = 
        }
    }
}
/* ================================================ */
[seq 47] [thread 0] in={
    .command = gcvHAL_USER_SIGNAL,
    .hardwareType = gcvHARDWARE_VIP,
    .coreIndex = 0x0,
    .engine = gcvENGINE_RENDER,
    .ignoreTLS = 0,
    .commitMutex = 0,
    .u = {
        .UserSignal = {
            .command = gcvUSER_SIGNAL_CREATE,
            .id = 0,
            .manualReset = 0,
            .wait = 0x0,
            .state = 0
        }
    }
}
[seq 48] [thread 0] out={
    .command = gcvHAL_USER_SIGNAL,
    .hardwareType = gcvHARDWARE_VIP,
    .coreIndex = 0x0,
    .status = gcvSTATUS_OK,
    .engine = gcvENGINE_RENDER,
    .ignoreTLS = 0,
    .commitMutex = 0,
    .u = {
        .UserSignal = {
            .command = gcvUSER_SIGNAL_CREATE,
            .id = 22502
        }
    }
}
/* ================================================ */
[seq 49] [thread 0] in={
    .command = gcvHAL_USER_SIGNAL,
    .hardwareType = gcvHARDWARE_VIP,
    .coreIndex = 0x0,
    .engine = gcvENGINE_RENDER,
    .ignoreTLS = 0,
    .commitMutex = 0,
    .u = {
        .UserSignal = {
            .command = gcvUSER_SIGNAL_SIGNAL,
            .id = 22502,
            .manualReset = 0,
            .wait = 0x0,
            .state = 1
        }
    }
}
[seq 50] [thread 0] out={
    .command = gcvHAL_USER_SIGNAL,
    .hardwareType = gcvHARDWARE_VIP,
    .coreIndex = 0x0,
    .status = gcvSTATUS_OK,
    .engine = gcvENGINE_RENDER,
    .ignoreTLS = 0,
    .commitMutex = 0,
    .u = {
        .UserSignal = {
            .command = gcvUSER_SIGNAL_SIGNAL,
            .id = 22502
        }
    }
}
/* ================================================ */
[seq 51] [thread 0] in={
    .command = gcvHAL_ALLOCATE_LINEAR_VIDEO_MEMORY,
    .hardwareType = gcvHARDWARE_VIP,
    .coreIndex = 0x0,
    .engine = gcvENGINE_RENDER,
    .ignoreTLS = 0,
    .commitMutex = 0,
    .u = {
        .AllocateLinearVideoMemory = {
            .bytes = 0x20000,
            .alignment = 0x8,
            .type = 0x10,
            .flag = 0x0,
            .pool = 0x1,
            .sRAMIndex = 0,
            .extSRAMIndex = 0
        }
    }
}
[seq 52] [thread 0] out={
    .command = gcvHAL_ALLOCATE_LINEAR_VIDEO_MEMORY,
    .hardwareType = gcvHARDWARE_VIP,
    .coreIndex = 0x0,
    .status = gcvSTATUS_OK,
    .engine = gcvENGINE_RENDER,
    .ignoreTLS = 0,
    .commitMutex = 0,
    .u = {
        .AllocateLinearVideoMemory = {
            .node = 0x3 /* ADDR_16_C */
        }
    }
}
/* ================================================ */
[seq 53] [thread 0] in={
    .command = gcvHAL_LOCK_VIDEO_MEMORY,
    .hardwareType = gcvHARDWARE_VIP,
    .coreIndex = 0x0,
    .engine = gcvENGINE_RENDER,
    .ignoreTLS = 0,
    .commitMutex = 0,
    .u = {
        .LockVideoMemory = {
            .node = 0x3 /* ADDR_16_C */,
            .cacheable = 0,
            .gid = 0x0,
            .op = 3
        }
    }
}
[seq 54] [thread 0] out={
    .command = gcvHAL_LOCK_VIDEO_MEMORY,
    .hardwareType = gcvHARDWARE_VIP,
    .coreIndex = 0x0,
    .status = gcvSTATUS_OK,
    .engine = gcvENGINE_RENDER,
    .ignoreTLS = 0,
    .commitMutex = 0,
    .u = {
        .LockVideoMemory = {
            .cacheable = 0,
            .address = 0x1804d5a8 /* ADDR_16_C */,
            .memory = 0xffff9264d5a8,
            .gid = 0x0,
            .physicalAddress = 0x1804d5a8,
            .op = 3
        }
    }
}
/* ================================================ */
[seq 55] [thread 0] in={
    .command = gcvHAL_USER_SIGNAL,
    .hardwareType = gcvHARDWARE_VIP,
    .coreIndex = 0x0,
    .engine = gcvENGINE_RENDER,
    .ignoreTLS = 0,
    .commitMutex = 0,
    .u = {
        .UserSignal = {
            .command = gcvUSER_SIGNAL_CREATE,
            .id = 0,
            .manualReset = 0,
            .wait = 0x0,
            .state = 0
        }
    }
}
[seq 56] [thread 0] out={
    .command = gcvHAL_USER_SIGNAL,
    .hardwareType = gcvHARDWARE_VIP,
    .coreIndex = 0x0,
    .status = gcvSTATUS_OK,
    .engine = gcvENGINE_RENDER,
    .ignoreTLS = 0,
    .commitMutex = 0,
    .u = {
        .UserSignal = {
            .command = gcvUSER_SIGNAL_CREATE,
            .id = 22505
        }
    }
}
/* ================================================ */
[seq 57] [thread 0] in={
    .command = gcvHAL_USER_SIGNAL,
    .hardwareType = gcvHARDWARE_VIP,
    .coreIndex = 0x0,
    .engine = gcvENGINE_RENDER,
    .ignoreTLS = 0,
    .commitMutex = 0,
    .u = {
        .UserSignal = {
            .command = gcvUSER_SIGNAL_SIGNAL,
            .id = 22505,
            .manualReset = 0,
            .wait = 0x0,
            .state = 1
        }
    }
}
[seq 58] [thread 0] out={
    .command = gcvHAL_USER_SIGNAL,
    .hardwareType = gcvHARDWARE_VIP,
    .coreIndex = 0x0,
    .status = gcvSTATUS_OK,
    .engine = gcvENGINE_RENDER,
    .ignoreTLS = 0,
    .commitMutex = 0,
    .u = {
        .UserSignal = {
            .command = gcvUSER_SIGNAL_SIGNAL,
            .id = 22505
        }
    }
}
/* ================================================ */
[seq 59] [thread 0] in={
    .command = gcvHAL_ALLOCATE_LINEAR_VIDEO_MEMORY,
    .hardwareType = gcvHARDWARE_VIP,
    .coreIndex = 0x0,
    .engine = gcvENGINE_RENDER,
    .ignoreTLS = 0,
    .commitMutex = 0,
    .u = {
        .AllocateLinearVideoMemory = {
            .bytes = 0x20000,
            .alignment = 0x8,
            .type = 0x10,
            .flag = 0x0,
            .pool = 0x1,
            .sRAMIndex = 0,
            .extSRAMIndex = 0
        }
    }
}
[seq 60] [thread 0] out={
    .command = gcvHAL_ALLOCATE_LINEAR_VIDEO_MEMORY,
    .hardwareType = gcvHARDWARE_VIP,
    .coreIndex = 0x0,
    .status = gcvSTATUS_OK,
    .engine = gcvENGINE_RENDER,
    .ignoreTLS = 0,
    .commitMutex = 0,
    .u = {
        .AllocateLinearVideoMemory = {
            .node = 0x4 /* ADDR_16_D */
        }
    }
}
/* ================================================ */
[seq 61] [thread 0] in={
    .command = gcvHAL_LOCK_VIDEO_MEMORY,
    .hardwareType = gcvHARDWARE_VIP,
    .coreIndex = 0x0,
    .engine = gcvENGINE_RENDER,
    .ignoreTLS = 0,
    .commitMutex = 0,
    .u = {
        .LockVideoMemory = {
            .node = 0x4 /* ADDR_16_D */,
            .cacheable = 0,
            .gid = 0x0,
            .op = 3
        }
    }
}
[seq 62] [thread 0] out={
    .command = gcvHAL_LOCK_VIDEO_MEMORY,
    .hardwareType = gcvHARDWARE_VIP,
    .coreIndex = 0x0,
    .status = gcvSTATUS_OK,
    .engine = gcvENGINE_RENDER,
    .ignoreTLS = 0,
    .commitMutex = 0,
    .u = {
        .LockVideoMemory = {
            .cacheable = 0,
            .address = 0x1806d5a8 /* ADDR_16_D */,
            .memory = 0xffff9266d5a8,
            .gid = 0x0,
            .physicalAddress = 0x1806d5a8,
            .op = 3
        }
    }
}
/* ================================================ */
[seq 63] [thread 0] in={
    .command = gcvHAL_USER_SIGNAL,
    .hardwareType = gcvHARDWARE_VIP,
    .coreIndex = 0x0,
    .engine = gcvENGINE_RENDER,
    .ignoreTLS = 0,
    .commitMutex = 0,
    .u = {
        .UserSignal = {
            .command = gcvUSER_SIGNAL_WAIT,
            .id = 22502,
            .manualReset = 0,
            .wait = 0x0,
            .state = 0
        }
    }
}
[seq 64] [thread 0] out={
    .command = gcvHAL_USER_SIGNAL,
    .hardwareType = gcvHARDWARE_VIP,
    .coreIndex = 0x0,
    .status = gcvSTATUS_OK,
    .engine = gcvENGINE_RENDER,
    .ignoreTLS = 0,
    .commitMutex = 0,
    .u = {
        .UserSignal = {
            .command = gcvUSER_SIGNAL_WAIT,
            .id = 22502
        }
    }
}
/* ================================================ */
[seq 65] [thread 0] in={
    .command = gcvHAL_USER_SIGNAL,
    .hardwareType = gcvHARDWARE_VIP,
    .coreIndex = 0x0,
    .engine = gcvENGINE_RENDER,
    .ignoreTLS = 0,
    .commitMutex = 0,
    .u = {
        .UserSignal = {
            .command = gcvUSER_SIGNAL_CREATE,
            .id = 0,
            .manualReset = 0,
            .wait = 0x0,
            .state = 0
        }
    }
}
[seq 66] [thread 0] out={
    .command = gcvHAL_USER_SIGNAL,
    .hardwareType = gcvHARDWARE_VIP,
    .coreIndex = 0x0,
    .status = gcvSTATUS_OK,
    .engine = gcvENGINE_RENDER,
    .ignoreTLS = 0,
    .commitMutex = 0,
    .u = {
        .UserSignal = {
            .command = gcvUSER_SIGNAL_CREATE,
            .id = 22508
        }
    }
}
/* ================================================ */
[seq 67] [thread 0] in={
    .command = gcvHAL_USER_SIGNAL,
    .hardwareType = gcvHARDWARE_VIP,
    .coreIndex = 0x0,
    .engine = gcvENGINE_RENDER,
    .ignoreTLS = 0,
    .commitMutex = 0,
    .u = {
        .UserSignal = {
            .command = gcvUSER_SIGNAL_CREATE,
            .id = 0,
            .manualReset = 1,
            .wait = 0x0,
            .state = 0
        }
    }
}
[seq 68] [thread 0] out={
    .command = gcvHAL_USER_SIGNAL,
    .hardwareType = gcvHARDWARE_VIP,
    .coreIndex = 0x0,
    .status = gcvSTATUS_OK,
    .engine = gcvENGINE_RENDER,
    .ignoreTLS = 0,
    .commitMutex = 0,
    .u = {
        .UserSignal = {
            .command = gcvUSER_SIGNAL_CREATE,
            .id = 22509
        }
    }
}
/* ================================================ */
[seq 69] [thread 0] in={
    .command = gcvHAL_USER_SIGNAL,
    .hardwareType = gcvHARDWARE_VIP,
    .coreIndex = 0x0,
    .engine = gcvENGINE_RENDER,
    .ignoreTLS = 0,
    .commitMutex = 0,
    .u = {
        .UserSignal = {
            .command = gcvUSER_SIGNAL_CREATE,
            .id = 0,
            .manualReset = 0,
            .wait = 0x0,
            .state = 0
        }
    }
}
[seq 70] [thread 1] in={
    .command = gcvHAL_USER_SIGNAL,
    .hardwareType = gcvHARDWARE_3D,
    .coreIndex = 0x0,
    .engine = gcvENGINE_RENDER,
    .ignoreTLS = 0,
    .commitMutex = 0,
    .u = {
        .UserSignal = {
            .command = gcvUSER_SIGNAL_WAIT,
            .id = 22508,
            .manualReset = 0,
            .wait = 0xffffffff,
            .state = 0
        }
    }
}
[seq 71] [thread 0] out={
    .command = gcvHAL_USER_SIGNAL,
    .hardwareType = gcvHARDWARE_VIP,
    .coreIndex = 0x0,
    .status = gcvSTATUS_OK,
    .engine = gcvENGINE_RENDER,
    .ignoreTLS = 0,
    .commitMutex = 0,
    .u = {
        .UserSignal = {
            .command = gcvUSER_SIGNAL_CREATE,
            .id = 22510
        }
    }
}
/* ================================================ */
[seq 72] [thread 0] in={
    .command = gcvHAL_USER_SIGNAL,
    .hardwareType = gcvHARDWARE_VIP,
    .coreIndex = 0x0,
    .engine = gcvENGINE_RENDER,
    .ignoreTLS = 0,
    .commitMutex = 0,
    .u = {
        .UserSignal = {
            .command = gcvUSER_SIGNAL_CREATE,
            .id = 0,
            .manualReset = 1,
            .wait = 0x0,
            .state = 0
        }
    }
}
[seq 73] [thread 0] out={
    .command = gcvHAL_USER_SIGNAL,
    .hardwareType = gcvHARDWARE_VIP,
    .coreIndex = 0x0,
    .status = gcvSTATUS_OK,
    .engine = gcvENGINE_RENDER,
    .ignoreTLS = 0,
    .commitMutex = 0,
    .u = {
        .UserSignal = {
            .command = gcvUSER_SIGNAL_CREATE,
            .id = 22511
        }
    }
}
/* ================================================ */
[seq 74] [thread 0] in={
    .command = gcvHAL_SET_TIMEOUT,
    .hardwareType = gcvHARDWARE_VIP,
    .coreIndex = 0x0,
    .engine = gcvENGINE_RENDER,
    .ignoreTLS = 0,
    .commitMutex = 0,
    .u = {
    }
}
[seq 75] [thread 0] out={
    .command = gcvHAL_SET_TIMEOUT,
    .hardwareType = gcvHARDWARE_VIP,
    .coreIndex = 0x0,
    .status = gcvSTATUS_OK,
    .engine = gcvENGINE_RENDER,
    .ignoreTLS = 0,
    .commitMutex = 0,
    .u = {
    }
}
/* ================================================ */
[seq 76] [thread 0] in={
    .command = gcvHAL_QUERY_CHIP_IDENTITY,
    .hardwareType = gcvHARDWARE_VIP,
    .coreIndex = 0x0,
    .engine = 93,
    .ignoreTLS = 0,
    .commitMutex = -1810980712,
    .u = {
    }
}
[seq 77] [thread 0] out={
    .command = gcvHAL_QUERY_CHIP_IDENTITY,
    .hardwareType = gcvHARDWARE_VIP,
    .coreIndex = 0x0,
    .status = gcvSTATUS_OK,
    .engine = 93,
    .ignoreTLS = 0,
    .commitMutex = -1810980712,
    .u = {
        .QueryChipIdentity = {
            .chipModel = gcv8000,
            .chipRevision = 0x7120,
            .chipDate = 0x20180807,
            .chipFeatures = 0xe0287cad /* FAST_CLEAR PIPE_3D DXT_TEXTURE_COMPRESSION Z_COMPRESSION MSAA ETC1_TEXTURE_COMPRESSION FAST_SCALER HIGH_DYNAMIC_RANGE YUV420_TILER MODULE_CG BYTE_WRITE_2D YUY2_AVERAGING BYTE_WRITE_3D RS_YUV_TARGET 32_BIT_INDICES */,
            .chipMinorFeatures = 0xc9799eff /* FLIP_Y DUAL_RETURN_BUS ENDIANNESS_CONFIG TEXTURE_8K CORRECT_TEXTURE_CONVERTER SPECIAL_MSAA_LOD FAST_CLEAR_FLUSH 2DPE20 RENDERTARGET_8K 2BITPERTILE SEPARATE_TILE_STATUS_WHEN_INTERLEAVED SUPER_TILED COMPRESSION_FIFO_FIXED HAS_SIGN_FLOOR_CEIL SHADER_HAS_W HAS_SQRT_TRIG MORE_MINOR_FEATURES MC20 BUG_FIXES0 HZ CORRECT_STENCIL ENHANCE_VR */,
            .chipMinorFeatures1 = 0xfefbfadb /* RSUV_SWIZZLE V2_COMPRESSION EXTRA_EVENT_STATES NO_STRIPING_NEEDED BUG_FIXES3 AUTO_DISABLE DISABLE_PE_GATING HALF_FLOAT PIXEL_DITHER TWO_STENCIL_REFERENCE EXTENDED_PIXEL_FORMAT CORRECT_MIN_MAX_DEPTH 2D_DITHER BUG_FIXES5 NEW_FP TEXTURE_HALIGN NON_POWER_OF_TWO LINEAR_TEXTURE_SUPPORT HALTI0 NEGATIVE_LOG_FIX RESOLVE_OFFSET OK_TO_GATE_AXI_CLOCK MMU_VERSION WIDE_LINE BUG_FIXES6 FC_FLUSH_STALL */,
            .chipMinorFeatures2 = 0xeb9d4fbf /* LINE_LOOP LOGIC_OP SEAMLESS_CUBE_MAP SUPERTILED_TEXTURE LINEAR_PE RECT_PRIMITIVE CORRECT_AUTO_DISABLE_COUNT PE_SWIZZLE END_EVENT S1S8 HALTI1 DYNAMIC_FREQUENCY_SCALING FULL_DIRECTFB THREAD_WALKER_IN_PS TILE_FILLER YUV_STANDARD FLUSH_FIXED_2D INTERLEAVER MIXED_STREAMS BUG_FIXES7 TEXTURE_TILED_READ DECOMPRESS_Z16 BUG_FIXES8 */,
            .chipMinorFeatures3 = 0xedfffcff /* ROTATION_STALL_FIX OCL_ONLY 2D_MULTI_SOURCE_BLT_EX INSTRUCTION_CACHE GEOMETRY_SHADER TEX_COMPRESSION_SUPERTILED GENERICS BUG_FIXES9 BUG_FIXES10 UNIFIED_SAMPLERS BUG_FIXES11 PERFORMANCE_COUNTERS HAS_FAST_TRANSCENDENTALS BUG_FIXES12 BUG_FIXES13 DE_ENHANCEMENTS1 ACE TX_ENHANCEMENTS1 SH_ENHANCEMENTS1 SH_ENHANCEMENTS2 PE_ENHANCEMENTS1 2D_FC_SOURCE BUG_FIXES_14 NEW_HZ PE_DITHER_FIX SH_ENHANCEMENTS3 SH_ENHANCEMENTS4 TX_ENHANCEMENTS2 */,
            .chipMinorFeatures4 = 0xdb0dafc7 /* FE_ENHANCEMENTS1 PE_ENHANCEMENTS2 FRUSTUM_CLIP_FIX SINGLE_BUFFER HI_ENHANCEMENTS_1 TX_ENHANCEMENTS_3 SH_ENHANCEMENTS_5 FE_ENHANCEMENTS_2 TX_LERP_PRECISION_FIX TEXTURE_ASTC MC_ENHANCEMENTS_1 HALTI2 SMALL_MSAA BUG_FIXES_17 ZFIXES BUG_FIXES18 PROBE MEDIUM_PRECISION BUG_FIXES19 SH_ENHANCEMENTS6 */,
            .chipMinorFeatures5 = 0xbb5ac733 /* SH_ENHANCEMENTS7 BUG_FIXES20 EEZ BUG_FIXES21 BUG_FIXES22 HALTI3 TESSELATION_SHADERS HALTI4 RA_WRITE_DEPTH HAS_PRODUCTID S8_MSAA_COMPRESSION PE_DITHER_FIX2 FE_ALLOW_RND_VTX_CNT TX_6BIT_FRAC FE_ALLOW_STALL_PREFETCH_ENG RS_DEPTHSTENCIL_NATIVE_SUPPORT V2_MSAA_COMP_FIX HALTI5 BLT_ENGINE */,
            .chipMinorFeatures6 = 0x1 /* BUG_FIXES_23 */,
            .streamCount = 0x8,
            .pixelPipes = 0x1,
            .resolvePipes = 0x0,
            .instructionCount = 0x200,
            .numConstants = 0x140,
            .varyingsCount = 0x10,
            .gpuCoreCount = 0x1,
            .clusterAvailMask = 0x0,
            .productID = 0x45080009,
            .chipFlags = gcvCHIP_AXI_BUS128_BITS,
            .ecoID = 0x0,
            .customerID = 0x88,
            .sRAMBases = ,
            .sRAMSizes = ,
            .platformFlagBits = 0x0,
            .registerAPB = 0x300000,
            .nnClusterNum = 0x1
        }
    }
}
/* ================================================ */
[seq 78] [thread 0] in={
    .command = gcvHAL_QUERY_CHIP_OPTION,
    .hardwareType = gcvHARDWARE_VIP,
    .coreIndex = 0x0,
    .engine = 93,
    .ignoreTLS = 0,
    .commitMutex = -1810980712,
    .u = {
    }
}
[seq 79] [thread 0] out={
    .command = gcvHAL_QUERY_CHIP_OPTION,
    .hardwareType = gcvHARDWARE_VIP,
    .coreIndex = 0x0,
    .status = gcvSTATUS_OK,
    .engine = 93,
    .ignoreTLS = 0,
    .commitMutex = -1810980712,
    .u = {
    }
}
/* ================================================ */
[seq 80] [thread 0] in={
    .command = gcvHAL_ATTACH,
    .hardwareType = gcvHARDWARE_VIP,
    .coreIndex = 0x0,
    .engine = -1804327072,
    .ignoreTLS = 0,
    .commitMutex = 44800,
    .u = {
        .Attach = {
            .context = 0x945e0b90,
            .maxState = 0xffff945e6000,
            .numStates = 0xaef,
            .map = 0,
            .logicals = ,
            .bytes = 0x78
        }
    }
}
[seq 81] [thread 0] out={
    .command = gcvHAL_ATTACH,
    .hardwareType = gcvHARDWARE_VIP,
    .coreIndex = 0x0,
    .status = gcvSTATUS_OK,
    .engine = -1804327072,
    .ignoreTLS = 0,
    .commitMutex = 44800,
    .u = {
        .Attach = {
            .context = 0xcb,
            .maxState = 0xdd00,
            .numStates = 0x864,
            .map = 0,
            .logicals = ,
            .bytes = 0x78
        }
    }
}
/* ================================================ */
[seq 82] [thread 0] in={
    .command = gcvHAL_USER_SIGNAL,
    .hardwareType = gcvHARDWARE_VIP,
    .coreIndex = 0x0,
    .engine = gcvENGINE_RENDER,
    .ignoreTLS = 0,
    .commitMutex = 0,
    .u = {
        .UserSignal = {
            .command = gcvUSER_SIGNAL_CREATE,
            .id = 0,
            .manualReset = 0,
            .wait = 0x0,
            .state = 0
        }
    }
}
[seq 83] [thread 0] out={
    .command = gcvHAL_USER_SIGNAL,
    .hardwareType = gcvHARDWARE_VIP,
    .coreIndex = 0x0,
    .status = gcvSTATUS_OK,
    .engine = gcvENGINE_RENDER,
    .ignoreTLS = 0,
    .commitMutex = 0,
    .u = {
        .UserSignal = {
            .command = gcvUSER_SIGNAL_CREATE,
            .id = 22518
        }
    }
}
/* ================================================ */
[seq 84] [thread 0] in={
    .command = gcvHAL_GET_BASE_ADDRESS,
    .hardwareType = gcvHARDWARE_VIP,
    .coreIndex = 0x0,
    .engine = gcvENGINE_RENDER,
    .ignoreTLS = 0,
    .commitMutex = 0,
    .u = {
    }
}
[seq 85] [thread 0] out={
    .command = gcvHAL_GET_BASE_ADDRESS,
    .hardwareType = gcvHARDWARE_VIP,
    .coreIndex = 0x0,
    .status = gcvSTATUS_OK,
    .engine = gcvENGINE_RENDER,
    .ignoreTLS = 0,
    .commitMutex = 0,
    .u = {
        .GetBaseAddress = {
            .baseAddress = 0x0,
            .flatMappingRangeCount = 0x2,
            .flatMappingRanges = 
        }
    }
}
/* ================================================ */
[seq 86] [thread 0] in={
    .command = gcvHAL_USER_SIGNAL,
    .hardwareType = gcvHARDWARE_VIP,
    .coreIndex = 0x0,
    .engine = gcvENGINE_RENDER,
    .ignoreTLS = 0,
    .commitMutex = 0,
    .u = {
        .UserSignal = {
            .command = gcvUSER_SIGNAL_CREATE,
            .id = 0,
            .manualReset = 0,
            .wait = 0x0,
            .state = 0
        }
    }
}
[seq 87] [thread 0] out={
    .command = gcvHAL_USER_SIGNAL,
    .hardwareType = gcvHARDWARE_VIP,
    .coreIndex = 0x0,
    .status = gcvSTATUS_OK,
    .engine = gcvENGINE_RENDER,
    .ignoreTLS = 0,
    .commitMutex = 0,
    .u = {
        .UserSignal = {
            .command = gcvUSER_SIGNAL_CREATE,
            .id = 22519
        }
    }
}
/* ================================================ */
[seq 88] [thread 0] in={
    .command = gcvHAL_USER_SIGNAL,
    .hardwareType = gcvHARDWARE_VIP,
    .coreIndex = 0x0,
    .engine = gcvENGINE_RENDER,
    .ignoreTLS = 0,
    .commitMutex = 0,
    .u = {
        .UserSignal = {
            .command = gcvUSER_SIGNAL_SIGNAL,
            .id = 22519,
            .manualReset = 0,
            .wait = 0x0,
            .state = 1
        }
    }
}
[seq 89] [thread 0] out={
    .command = gcvHAL_USER_SIGNAL,
    .hardwareType = gcvHARDWARE_VIP,
    .coreIndex = 0x0,
    .status = gcvSTATUS_OK,
    .engine = gcvENGINE_RENDER,
    .ignoreTLS = 0,
    .commitMutex = 0,
    .u = {
        .UserSignal = {
            .command = gcvUSER_SIGNAL_SIGNAL,
            .id = 22519
        }
    }
}
/* ================================================ */
[seq 90] [thread 0] in={
    .command = gcvHAL_ALLOCATE_LINEAR_VIDEO_MEMORY,
    .hardwareType = gcvHARDWARE_VIP,
    .coreIndex = 0x0,
    .engine = gcvENGINE_RENDER,
    .ignoreTLS = 0,
    .commitMutex = 0,
    .u = {
        .AllocateLinearVideoMemory = {
            .bytes = 0x20000,
            .alignment = 0x8,
            .type = 0x10,
            .flag = 0x0,
            .pool = 0x1,
            .sRAMIndex = 0,
            .extSRAMIndex = 0
        }
    }
}
[seq 91] [thread 0] out={
    .command = gcvHAL_ALLOCATE_LINEAR_VIDEO_MEMORY,
    .hardwareType = gcvHARDWARE_VIP,
    .coreIndex = 0x0,
    .status = gcvSTATUS_OK,
    .engine = gcvENGINE_RENDER,
    .ignoreTLS = 0,
    .commitMutex = 0,
    .u = {
        .AllocateLinearVideoMemory = {
            .node = 0x5 /* ADDR_16_E */
        }
    }
}
/* ================================================ */
[seq 92] [thread 0] in={
    .command = gcvHAL_LOCK_VIDEO_MEMORY,
    .hardwareType = gcvHARDWARE_VIP,
    .coreIndex = 0x0,
    .engine = gcvENGINE_RENDER,
    .ignoreTLS = 0,
    .commitMutex = 0,
    .u = {
        .LockVideoMemory = {
            .node = 0x5 /* ADDR_16_E */,
            .cacheable = 0,
            .gid = 0x0,
            .op = 3
        }
    }
}
[seq 93] [thread 0] out={
    .command = gcvHAL_LOCK_VIDEO_MEMORY,
    .hardwareType = gcvHARDWARE_VIP,
    .coreIndex = 0x0,
    .status = gcvSTATUS_OK,
    .engine = gcvENGINE_RENDER,
    .ignoreTLS = 0,
    .commitMutex = 0,
    .u = {
        .LockVideoMemory = {
            .cacheable = 0,
            .address = 0x18091f28 /* ADDR_16_E */,
            .memory = 0xffff92691f28,
            .gid = 0x0,
            .physicalAddress = 0x18091f28,
            .op = 3
        }
    }
}
/* ================================================ */
[seq 94] [thread 0] in={
    .command = gcvHAL_USER_SIGNAL,
    .hardwareType = gcvHARDWARE_VIP,
    .coreIndex = 0x0,
    .engine = gcvENGINE_RENDER,
    .ignoreTLS = 0,
    .commitMutex = 0,
    .u = {
        .UserSignal = {
            .command = gcvUSER_SIGNAL_CREATE,
            .id = 0,
            .manualReset = 0,
            .wait = 0x0,
            .state = 0
        }
    }
}
[seq 95] [thread 0] out={
    .command = gcvHAL_USER_SIGNAL,
    .hardwareType = gcvHARDWARE_VIP,
    .coreIndex = 0x0,
    .status = gcvSTATUS_OK,
    .engine = gcvENGINE_RENDER,
    .ignoreTLS = 0,
    .commitMutex = 0,
    .u = {
        .UserSignal = {
            .command = gcvUSER_SIGNAL_CREATE,
            .id = 22522
        }
    }
}
/* ================================================ */
[seq 96] [thread 0] in={
    .command = gcvHAL_USER_SIGNAL,
    .hardwareType = gcvHARDWARE_VIP,
    .coreIndex = 0x0,
    .engine = gcvENGINE_RENDER,
    .ignoreTLS = 0,
    .commitMutex = 0,
    .u = {
        .UserSignal = {
            .command = gcvUSER_SIGNAL_SIGNAL,
            .id = 22522,
            .manualReset = 0,
            .wait = 0x0,
            .state = 1
        }
    }
}
[seq 97] [thread 0] out={
    .command = gcvHAL_USER_SIGNAL,
    .hardwareType = gcvHARDWARE_VIP,
    .coreIndex = 0x0,
    .status = gcvSTATUS_OK,
    .engine = gcvENGINE_RENDER,
    .ignoreTLS = 0,
    .commitMutex = 0,
    .u = {
        .UserSignal = {
            .command = gcvUSER_SIGNAL_SIGNAL,
            .id = 22522
        }
    }
}
/* ================================================ */
[seq 98] [thread 0] in={
    .command = gcvHAL_ALLOCATE_LINEAR_VIDEO_MEMORY,
    .hardwareType = gcvHARDWARE_VIP,
    .coreIndex = 0x0,
    .engine = gcvENGINE_RENDER,
    .ignoreTLS = 0,
    .commitMutex = 0,
    .u = {
        .AllocateLinearVideoMemory = {
            .bytes = 0x20000,
            .alignment = 0x8,
            .type = 0x10,
            .flag = 0x0,
            .pool = 0x1,
            .sRAMIndex = 0,
            .extSRAMIndex = 0
        }
    }
}
[seq 99] [thread 0] out={
    .command = gcvHAL_ALLOCATE_LINEAR_VIDEO_MEMORY,
    .hardwareType = gcvHARDWARE_VIP,
    .coreIndex = 0x0,
    .status = gcvSTATUS_OK,
    .engine = gcvENGINE_RENDER,
    .ignoreTLS = 0,
    .commitMutex = 0,
    .u = {
        .AllocateLinearVideoMemory = {
            .node = 0x6 /* ADDR_16_F */
        }
    }
}
/* ================================================ */
[seq 100] [thread 0] in={
    .command = gcvHAL_LOCK_VIDEO_MEMORY,
    .hardwareType = gcvHARDWARE_VIP,
    .coreIndex = 0x0,
    .engine = gcvENGINE_RENDER,
    .ignoreTLS = 0,
    .commitMutex = 0,
    .u = {
        .LockVideoMemory = {
            .node = 0x6 /* ADDR_16_F */,
            .cacheable = 0,
            .gid = 0x0,
            .op = 3
        }
    }
}
[seq 101] [thread 0] out={
    .command = gcvHAL_LOCK_VIDEO_MEMORY,
    .hardwareType = gcvHARDWARE_VIP,
    .coreIndex = 0x0,
    .status = gcvSTATUS_OK,
    .engine = gcvENGINE_RENDER,
    .ignoreTLS = 0,
    .commitMutex = 0,
    .u = {
        .LockVideoMemory = {
            .cacheable = 0,
            .address = 0x180b1f28 /* ADDR_16_F */,
            .memory = 0xffff926b1f28,
            .gid = 0x0,
            .physicalAddress = 0x180b1f28,
            .op = 3
        }
    }
}
/* ================================================ */
[seq 102] [thread 0] in={
    .command = gcvHAL_USER_SIGNAL,
    .hardwareType = gcvHARDWARE_VIP,
    .coreIndex = 0x0,
    .engine = gcvENGINE_RENDER,
    .ignoreTLS = 0,
    .commitMutex = 0,
    .u = {
        .UserSignal = {
            .command = gcvUSER_SIGNAL_WAIT,
            .id = 22519,
            .manualReset = 0,
            .wait = 0x0,
            .state = 0
        }
    }
}
[seq 103] [thread 0] out={
    .command = gcvHAL_USER_SIGNAL,
    .hardwareType = gcvHARDWARE_VIP,
    .coreIndex = 0x0,
    .status = gcvSTATUS_OK,
    .engine = gcvENGINE_RENDER,
    .ignoreTLS = 0,
    .commitMutex = 0,
    .u = {
        .UserSignal = {
            .command = gcvUSER_SIGNAL_WAIT,
            .id = 22519
        }
    }
}
/* ================================================ */
[seq 104] [thread 0] in={
    .command = gcvHAL_USER_SIGNAL,
    .hardwareType = gcvHARDWARE_VIP,
    .coreIndex = 0x0,
    .engine = gcvENGINE_RENDER,
    .ignoreTLS = 0,
    .commitMutex = 0,
    .u = {
        .UserSignal = {
            .command = gcvUSER_SIGNAL_CREATE,
            .id = 0,
            .manualReset = 0,
            .wait = 0x0,
            .state = 0
        }
    }
}
[seq 105] [thread 0] out={
    .command = gcvHAL_USER_SIGNAL,
    .hardwareType = gcvHARDWARE_VIP,
    .coreIndex = 0x0,
    .status = gcvSTATUS_OK,
    .engine = gcvENGINE_RENDER,
    .ignoreTLS = 0,
    .commitMutex = 0,
    .u = {
        .UserSignal = {
            .command = gcvUSER_SIGNAL_CREATE,
            .id = 22525
        }
    }
}
/* ================================================ */
[seq 106] [thread 0] in={
    .command = gcvHAL_USER_SIGNAL,
    .hardwareType = gcvHARDWARE_VIP,
    .coreIndex = 0x0,
    .engine = gcvENGINE_RENDER,
    .ignoreTLS = 0,
    .commitMutex = 0,
    .u = {
        .UserSignal = {
            .command = gcvUSER_SIGNAL_CREATE,
            .id = 0,
            .manualReset = 1,
            .wait = 0x0,
            .state = 0
        }
    }
}
[seq 107] [thread 0] out={
    .command = gcvHAL_USER_SIGNAL,
    .hardwareType = gcvHARDWARE_VIP,
    .coreIndex = 0x0,
    .status = gcvSTATUS_OK,
    .engine = gcvENGINE_RENDER,
    .ignoreTLS = 0,
    .commitMutex = 0,
    .u = {
        .UserSignal = {
            .command = gcvUSER_SIGNAL_CREATE,
            .id = 22526
        }
    }
}
/* ================================================ */
[seq 108] [thread 2] in={
    .command = gcvHAL_USER_SIGNAL,
    .hardwareType = gcvHARDWARE_VIP,
    .coreIndex = 0x0,
    .engine = gcvENGINE_RENDER,
    .ignoreTLS = 0,
    .commitMutex = 0,
    .u = {
        .UserSignal = {
            .command = gcvUSER_SIGNAL_WAIT,
            .id = 22525,
            .manualReset = 0,
            .wait = 0xffffffff,
            .state = 0
        }
    }
}
[seq 109] [thread 0] in={
    .command = gcvHAL_USER_SIGNAL,
    .hardwareType = gcvHARDWARE_VIP,
    .coreIndex = 0x0,
    .engine = gcvENGINE_RENDER,
    .ignoreTLS = 0,
    .commitMutex = 0,
    .u = {
        .UserSignal = {
            .command = gcvUSER_SIGNAL_CREATE,
            .id = 0,
            .manualReset = 1,
            .wait = 0x0,
            .state = 0
        }
    }
}
[seq 110] [thread 0] out={
    .command = gcvHAL_USER_SIGNAL,
    .hardwareType = gcvHARDWARE_VIP,
    .coreIndex = 0x0,
    .status = gcvSTATUS_OK,
    .engine = gcvENGINE_RENDER,
    .ignoreTLS = 0,
    .commitMutex = 0,
    .u = {
        .UserSignal = {
            .command = gcvUSER_SIGNAL_CREATE,
            .id = 22527
        }
    }
}
/* ================================================ */
[seq 111] [thread 0] in={
    .command = gcvHAL_USER_SIGNAL,
    .hardwareType = gcvHARDWARE_VIP,
    .coreIndex = 0x0,
    .engine = gcvENGINE_RENDER,
    .ignoreTLS = 0,
    .commitMutex = 0,
    .u = {
        .UserSignal = {
            .command = gcvUSER_SIGNAL_CREATE,
            .id = 0,
            .manualReset = 1,
            .wait = 0x0,
            .state = 0
        }
    }
}
[seq 112] [thread 0] out={
    .command = gcvHAL_USER_SIGNAL,
    .hardwareType = gcvHARDWARE_VIP,
    .coreIndex = 0x0,
    .status = gcvSTATUS_OK,
    .engine = gcvENGINE_RENDER,
    .ignoreTLS = 0,
    .commitMutex = 0,
    .u = {
        .UserSignal = {
            .command = gcvUSER_SIGNAL_CREATE,
            .id = 22528
        }
    }
}
/* ================================================ */
[seq 113] [thread 0] in={
    .command = gcvHAL_USER_SIGNAL,
    .hardwareType = gcvHARDWARE_VIP,
    .coreIndex = 0x0,
    .engine = gcvENGINE_RENDER,
    .ignoreTLS = 0,
    .commitMutex = 0,
    .u = {
        .UserSignal = {
            .command = gcvUSER_SIGNAL_CREATE,
            .id = 0,
            .manualReset = 1,
            .wait = 0x0,
            .state = 0
        }
    }
}
[seq 114] [thread 0] out={
    .command = gcvHAL_USER_SIGNAL,
    .hardwareType = gcvHARDWARE_VIP,
    .coreIndex = 0x0,
    .status = gcvSTATUS_OK,
    .engine = gcvENGINE_RENDER,
    .ignoreTLS = 0,
    .commitMutex = 0,
    .u = {
        .UserSignal = {
            .command = gcvUSER_SIGNAL_CREATE,
            .id = 22529
        }
    }
}
/* ================================================ */
[seq 115] [thread 0] in={
    .command = gcvHAL_COMMIT,
    .hardwareType = gcvHARDWARE_VIP,
    .coreIndex = 0x0,
    .engine = gcvENGINE_RENDER,
    .ignoreTLS = 0,
    .commitMutex = 0,
    .u = {
        .Commit = {
            .subCommit = {
                .coreId = 0x0,
                .delta = 0xaaaaed3436a0,
                .context = 0xc9,
                .queue = &(_gcsQUEUE)0x0void,
                .commandBuffer = {
                    .priority = 0x0,
                    .channelId = 0x0,
                    .videoMemNode = 0x1,
                    .address = 0x18008c28,
                    .logical = &(uint32[])0xffff92608c28{
                        0x00000000, /* PAD */
                        0x00000000, /* PAD */
                        0x00000000, /* PAD */
                        0x00000000, /* PAD */
                        0x00000000, /* PAD */
                        0x00000000, /* PAD */
                        0x00000000, /* PAD */
                        0x00000000, /* PAD */
                        0x0801028a, /* LOAD_STATE (1) Base: 0x00A28 Size: 1 Fixp: 0 */
                        0x00000011, /*   [00A28] PA.SYSTEM_MODE := PROVOKING_VERTEX_LAST=1,HALF_PIXEL_CENTER=1 */
                        0x08010e13, /* LOAD_STATE (1) Base: 0x0384C Size: 1 Fixp: 0 */
                        0x00000002, /*   [0384C] GL.API_MODE := OPENCL */
                        0x08015580, /* LOAD_STATE (1) Base: 0x15600 Size: 1 Fixp: 0 */
                        0x00000002, /*   [15600] SH.CONFIG := RTNE_ROUNDING=1,DUAL16=0 */
                        0x40000005, /* LINK (8) PREFETCH=0x5,OP=LINK */
                        0x180012d8  /*   ADDRESS (WILD_ADDR) */
                    }/* [dumped cmd to 000_cmd.bin] */ ,
                    .startOffset = 0x0,
                    .size = 0x40,
                    .reservedHead = 0x20,
                    .reservedTail = 0x8,
                    .patchHead = 0x0,
                    .exitIndex = 0x0,
                    .entryPipe = 0x0,
                    .exitPipe = 0x0,
                    .next = &(_gcsQUEUE)0x0void
                },
                .next = &(_gcsQUEUE)0x0void
            },
            .shared = 0,
            .contextSwitched = 65535,
            .commitStamp = 0xffff9474add0,
            .broCoreMask = 0x1,
            .commandBuffer = &(_gcoCMDBUF)0xffff93f92d30{
                .object = {
                    .type = 
                },
                .commitCount = ,
                .entryPipe = ,
                .exitPipe = ,
                .using2D = ,
                .using3D = ,
                .reservedHead = ,
                .reservedTail = ,
                .videoMemNode = ,
                .address = ,
                .logical = ,
                .bytes = ,
                .startOffset = ,
                .offset = ,
                .free = ,
                .lastReserve = ,
                .lastOffset = ,
                .lastLoadStatePtr = ,
                .lastLoadStateAddress = ,
                .lastLoadStateCount = ,
                .signal = ,
                .mirrors = ,
                .mirrorCount = 
            }
        }
    }
}
[seq 116] [thread 0] out={
    .command = gcvHAL_COMMIT,
    .hardwareType = gcvHARDWARE_VIP,
    .coreIndex = 0x0,
    .status = gcvSTATUS_OK,
    .engine = gcvENGINE_RENDER,
    .ignoreTLS = 0,
    .commitMutex = 0,
    .u = {
    }
}
/* ================================================ */
[seq 117] [thread 0] in={
    .command = gcvHAL_COMMIT,
    .hardwareType = gcvHARDWARE_VIP,
    .coreIndex = 0x0,
    .engine = gcvENGINE_RENDER,
    .ignoreTLS = 0,
    .commitMutex = 0,
    .u = {
        .Commit = {
            .subCommit = {
                .coreId = 0x0,
                .delta = 0xaaaaed355340,
                .context = 0xcb,
                .queue = &(_gcsQUEUE)0x0void,
                .commandBuffer = {
                    .priority = 0x0,
                    .channelId = 0x0,
                    .videoMemNode = 0x5,
                    .address = 0x18091f28,
                    .logical = &(uint32[])0xffff92691f28{
                        0x00000000, /* PAD */
                        0x00000000, /* PAD */
                        0x00000000, /* PAD */
                        0x00000000, /* PAD */
                        0x00000000, /* PAD */
                        0x00000000, /* PAD */
                        0x00000000, /* PAD */
                        0x00000000, /* PAD */
                        0x0801028a, /* LOAD_STATE (1) Base: 0x00A28 Size: 1 Fixp: 0 */
                        0x00000011, /*   [00A28] PA.SYSTEM_MODE := PROVOKING_VERTEX_LAST=1,HALF_PIXEL_CENTER=1 */
                        0x08010e13, /* LOAD_STATE (1) Base: 0x0384C Size: 1 Fixp: 0 */
                        0x00000002, /*   [0384C] GL.API_MODE := OPENCL */
                        0x08015580, /* LOAD_STATE (1) Base: 0x15600 Size: 1 Fixp: 0 */
                        0x00000002, /*   [15600] SH.CONFIG := RTNE_ROUNDING=1,DUAL16=0 */
                        0x40000008, /* LINK (8) PREFETCH=0x8,OP=LINK */
                        0x18001300  /*   ADDRESS (WILD_ADDR) */
                    }/* [dumped cmd to 001_cmd.bin] */ ,
                    .startOffset = 0x0,
                    .size = 0x40,
                    .reservedHead = 0x20,
                    .reservedTail = 0x8,
                    .patchHead = 0x0,
                    .exitIndex = 0x0,
                    .entryPipe = 0x0,
                    .exitPipe = 0x0,
                    .next = &(_gcsQUEUE)0x0void
                },
                .next = &(_gcsQUEUE)0x0void
            },
            .shared = 0,
            .contextSwitched = 0,
            .commitStamp = 0xffff9474b180,
            .broCoreMask = 0x1,
            .commandBuffer = &(_gcoCMDBUF)0xffff9410d000{
                .object = {
                    .type = 
                },
                .commitCount = ,
                .entryPipe = ,
                .exitPipe = ,
                .using2D = ,
                .using3D = ,
                .reservedHead = ,
                .reservedTail = ,
                .videoMemNode = ,
                .address = ,
                .logical = ,
                .bytes = ,
                .startOffset = ,
                .offset = ,
                .free = ,
                .lastReserve = ,
                .lastOffset = ,
                .lastLoadStatePtr = ,
                .lastLoadStateAddress = ,
                .lastLoadStateCount = ,
                .signal = ,
                .mirrors = ,
                .mirrorCount = 
            }
        }
    }
}
[seq 118] [thread 0] out={
    .command = gcvHAL_COMMIT,
    .hardwareType = gcvHARDWARE_VIP,
    .coreIndex = 0x0,
    .status = gcvSTATUS_OK,
    .engine = gcvENGINE_RENDER,
    .ignoreTLS = 0,
    .commitMutex = 0,
    .u = {
    }
}
/* ================================================ */
[seq 119] [thread 0] in={
    .command = gcvHAL_USER_SIGNAL,
    .hardwareType = gcvHARDWARE_VIP,
    .coreIndex = 0x0,
    .engine = gcvENGINE_RENDER,
    .ignoreTLS = 0,
    .commitMutex = 0,
    .u = {
        .UserSignal = {
            .command = gcvUSER_SIGNAL_SIGNAL,
            .id = 22529,
            .manualReset = 0,
            .wait = 0x0,
            .state = 1
        }
    }
}
[seq 120] [thread 0] out={
    .command = gcvHAL_USER_SIGNAL,
    .hardwareType = gcvHARDWARE_VIP,
    .coreIndex = 0x0,
    .status = gcvSTATUS_OK,
    .engine = gcvENGINE_RENDER,
    .ignoreTLS = 0,
    .commitMutex = 0,
    .u = {
        .UserSignal = {
            .command = gcvUSER_SIGNAL_SIGNAL,
            .id = 22529
        }
    }
}
/* ================================================ */
[seq 121] [thread 0] in={
    .command = gcvHAL_USER_SIGNAL,
    .hardwareType = gcvHARDWARE_VIP,
    .coreIndex = 0x0,
    .engine = gcvENGINE_RENDER,
    .ignoreTLS = 0,
    .commitMutex = 0,
    .u = {
        .UserSignal = {
            .command = gcvUSER_SIGNAL_WAIT,
            .id = 22529,
            .manualReset = 0,
            .wait = 0xffffffff,
            .state = 0
        }
    }
}
[seq 122] [thread 0] out={
    .command = gcvHAL_USER_SIGNAL,
    .hardwareType = gcvHARDWARE_VIP,
    .coreIndex = 0x0,
    .status = gcvSTATUS_OK,
    .engine = gcvENGINE_RENDER,
    .ignoreTLS = 0,
    .commitMutex = 0,
    .u = {
        .UserSignal = {
            .command = gcvUSER_SIGNAL_WAIT,
            .id = 22529
        }
    }
}
/* ================================================ */
[seq 123] [thread 0] in={
    .command = gcvHAL_USER_SIGNAL,
    .hardwareType = gcvHARDWARE_VIP,
    .coreIndex = 0x0,
    .engine = gcvENGINE_RENDER,
    .ignoreTLS = 0,
    .commitMutex = 0,
    .u = {
        .UserSignal = {
            .command = gcvUSER_SIGNAL_DESTROY,
            .id = 22527,
            .manualReset = 0,
            .wait = 0x0,
            .state = 0
        }
    }
}
[seq 124] [thread 0] out={
    .command = gcvHAL_USER_SIGNAL,
    .hardwareType = gcvHARDWARE_VIP,
    .coreIndex = 0x0,
    .status = gcvSTATUS_OK,
    .engine = gcvENGINE_RENDER,
    .ignoreTLS = 0,
    .commitMutex = 0,
    .u = {
        .UserSignal = {
            .command = gcvUSER_SIGNAL_DESTROY,
            .id = 22527
        }
    }
}
/* ================================================ */
[seq 125] [thread 0] in={
    .command = gcvHAL_USER_SIGNAL,
    .hardwareType = gcvHARDWARE_VIP,
    .coreIndex = 0x0,
    .engine = gcvENGINE_RENDER,
    .ignoreTLS = 0,
    .commitMutex = 0,
    .u = {
        .UserSignal = {
            .command = gcvUSER_SIGNAL_DESTROY,
            .id = 22528,
            .manualReset = 0,
            .wait = 0x0,
            .state = 0
        }
    }
}
[seq 126] [thread 0] out={
    .command = gcvHAL_USER_SIGNAL,
    .hardwareType = gcvHARDWARE_VIP,
    .coreIndex = 0x0,
    .status = gcvSTATUS_OK,
    .engine = gcvENGINE_RENDER,
    .ignoreTLS = 0,
    .commitMutex = 0,
    .u = {
        .UserSignal = {
            .command = gcvUSER_SIGNAL_DESTROY,
            .id = 22528
        }
    }
}
/* ================================================ */
[seq 127] [thread 0] in={
    .command = gcvHAL_USER_SIGNAL,
    .hardwareType = gcvHARDWARE_VIP,
    .coreIndex = 0x0,
    .engine = gcvENGINE_RENDER,
    .ignoreTLS = 0,
    .commitMutex = 0,
    .u = {
        .UserSignal = {
            .command = gcvUSER_SIGNAL_DESTROY,
            .id = 22529,
            .manualReset = 0,
            .wait = 0x0,
            .state = 0
        }
    }
}
[seq 128] [thread 0] out={
    .command = gcvHAL_USER_SIGNAL,
    .hardwareType = gcvHARDWARE_VIP,
    .coreIndex = 0x0,
    .status = gcvSTATUS_OK,
    .engine = gcvENGINE_RENDER,
    .ignoreTLS = 0,
    .commitMutex = 0,
    .u = {
        .UserSignal = {
            .command = gcvUSER_SIGNAL_DESTROY,
            .id = 22529
        }
    }
}
/* ================================================ */
[seq 129] [thread 0] in={
    .command = gcvHAL_COMMIT,
    .hardwareType = gcvHARDWARE_VIP,
    .coreIndex = 0x0,
    .engine = gcvENGINE_RENDER,
    .ignoreTLS = 0,
    .commitMutex = 0,
    .u = {
        .Commit = {
            .subCommit = {
                .coreId = 0x0,
                .delta = 0xaaaaed342ec0,
                .context = 0xc9,
                .queue = &(_gcsQUEUE)0x0void,
                .commandBuffer = {
                    .priority = 0x0,
                    .channelId = 0x0,
                    .videoMemNode = 0x1,
                    .address = 0x18008c28,
                    .logical = &(uint32[])0xffff92608c28{
                        0x00000000, /* PAD */
                        0x00000000, /* PAD */
                        0x00000000, /* PAD */
                        0x00000000, /* PAD */
                        0x00000000, /* PAD */
                        0x00000000, /* PAD */
                        0x00000000, /* PAD */
                        0x00000000, /* PAD */
                        0x08010e03, /* LOAD_STATE (1) Base: 0x0380C Size: 1 Fixp: 0 */
                        0x00000c23, /*   [0380C] GL.FLUSH_CACHE := DEPTH=1,COLOR=1,TEXTURE=0,PE2D=0,TEXTUREVS=0,SHADER_L1=1,SHADER_L2=0,UNK10=1,UNK11=1,DESCRIPTOR_UNK12=0,DESCRIPTOR_UNK13=0 */
                        0x08010e03, /* LOAD_STATE (1) Base: 0x0380C Size: 1 Fixp: 0 */
                        0x00000c23, /*   [0380C] GL.FLUSH_CACHE := DEPTH=1,COLOR=1,TEXTURE=0,PE2D=0,TEXTUREVS=0,SHADER_L1=1,SHADER_L2=0,UNK10=1,UNK11=1,DESCRIPTOR_UNK12=0,DESCRIPTOR_UNK13=0 */
                        0x40000003, /* LINK (8) PREFETCH=0x3,OP=LINK */
                        0x18001328  /*   ADDRESS (WILD_ADDR) */
                    }/* [dumped cmd to 002_cmd.bin] */ ,
                    .startOffset = 0x40,
                    .size = 0x38,
                    .reservedHead = 0x20,
                    .reservedTail = 0x8,
                    .patchHead = 0x0,
                    .exitIndex = 0x0,
                    .entryPipe = 0x0,
                    .exitPipe = 0x0,
                    .next = &(_gcsQUEUE)0x0void
                },
                .next = &(_gcsQUEUE)0x0void
            },
            .shared = 0,
            .contextSwitched = 0,
            .commitStamp = 0xffff94749a40,
            .broCoreMask = 0x1,
            .commandBuffer = &(_gcoCMDBUF)0xffff93f92c90{
                .object = {
                    .type = 
                },
                .commitCount = ,
                .entryPipe = ,
                .exitPipe = ,
                .using2D = ,
                .using3D = ,
                .reservedHead = ,
                .reservedTail = ,
                .videoMemNode = ,
                .address = ,
                .logical = ,
                .bytes = ,
                .startOffset = ,
                .offset = ,
                .free = ,
                .lastReserve = ,
                .lastOffset = ,
                .lastLoadStatePtr = ,
                .lastLoadStateAddress = ,
                .lastLoadStateCount = ,
                .signal = ,
                .mirrors = ,
                .mirrorCount = 
            }
        }
    }
}
[seq 130] [thread 0] out={
    .command = gcvHAL_COMMIT,
    .hardwareType = gcvHARDWARE_VIP,
    .coreIndex = 0x0,
    .status = gcvSTATUS_OK,
    .engine = gcvENGINE_RENDER,
    .ignoreTLS = 0,
    .commitMutex = 0,
    .u = {
    }
}
/* ================================================ */
[seq 131] [thread 0] in={
    .command = gcvHAL_USER_SIGNAL,
    .hardwareType = gcvHARDWARE_VIP,
    .coreIndex = 0x0,
    .engine = gcvENGINE_RENDER,
    .ignoreTLS = 0,
    .commitMutex = 0,
    .u = {
        .UserSignal = {
            .command = gcvUSER_SIGNAL_SIGNAL,
            .id = 22526,
            .manualReset = 0,
            .wait = 0x0,
            .state = 1
        }
    }
}
[seq 132] [thread 0] out={
    .command = gcvHAL_USER_SIGNAL,
    .hardwareType = gcvHARDWARE_VIP,
    .coreIndex = 0x0,
    .status = gcvSTATUS_OK,
    .engine = gcvENGINE_RENDER,
    .ignoreTLS = 0,
    .commitMutex = 0,
    .u = {
        .UserSignal = {
            .command = gcvUSER_SIGNAL_SIGNAL,
            .id = 22526
        }
    }
}
/* ================================================ */
[seq 133] [thread 0] in={
    .command = gcvHAL_USER_SIGNAL,
    .hardwareType = gcvHARDWARE_VIP,
    .coreIndex = 0x0,
    .engine = gcvENGINE_RENDER,
    .ignoreTLS = 0,
    .commitMutex = 0,
    .u = {
        .UserSignal = {
            .command = gcvUSER_SIGNAL_SIGNAL,
            .id = 22525,
            .manualReset = 0,
            .wait = 0x0,
            .state = 1
        }
    }
}
[seq 134] [thread 0] out={
    .command = gcvHAL_USER_SIGNAL,
    .hardwareType = gcvHARDWARE_VIP,
    .coreIndex = 0x0,
    .status = gcvSTATUS_OK,
    .engine = gcvENGINE_RENDER,
    .ignoreTLS = 0,
    .commitMutex = 0,
    .u = {
        .UserSignal = {
            .command = gcvUSER_SIGNAL_SIGNAL,
            .id = 22525
        }
    }
}
/* ================================================ */
[seq 135] [thread 2] out={
    .command = gcvHAL_USER_SIGNAL,
    .hardwareType = gcvHARDWARE_VIP,
    .coreIndex = 0x0,
    .status = gcvSTATUS_OK,
    .engine = gcvENGINE_RENDER,
    .ignoreTLS = 0,
    .commitMutex = 0,
    .u = {
        .UserSignal = {
            .command = gcvUSER_SIGNAL_WAIT,
            .id = 22525
        }
    }
}
/* ================================================ */
[seq 136] [thread 0] in={
    .command = gcvHAL_COMMIT,
    .hardwareType = gcvHARDWARE_VIP,
    .coreIndex = 0x0,
    .engine = gcvENGINE_RENDER,
    .ignoreTLS = 0,
    .commitMutex = 0,
    .u = {
        .Commit = {
            .subCommit = {
                .coreId = 0x0,
                .delta = 0xaaaaed342cf0,
                .context = 0xc9,
                .queue = &(_gcsQUEUE)0x0void,
                .commandBuffer = {
                    .priority = 0x0,
                    .channelId = 0x0,
                    .videoMemNode = 0x1,
                    .address = 0x18008c28,
                    .logical = &(uint32[])0xffff92608c28{
                        0x00000000, /* PAD */
                        0x00000000, /* PAD */
                        0x00000000, /* PAD */
                        0x00000000, /* PAD */
                        0x00000000, /* PAD */
                        0x00000000, /* PAD */
                        0x00000000, /* PAD */
                        0x00000000, /* PAD */
                        0x08010e03, /* LOAD_STATE (1) Base: 0x0380C Size: 1 Fixp: 0 */
                        0x00000c23, /*   [0380C] GL.FLUSH_CACHE := DEPTH=1,COLOR=1,TEXTURE=0,PE2D=0,TEXTUREVS=0,SHADER_L1=1,SHADER_L2=0,UNK10=1,UNK11=1,DESCRIPTOR_UNK12=0,DESCRIPTOR_UNK13=0 */
                        0x08010e03, /* LOAD_STATE (1) Base: 0x0380C Size: 1 Fixp: 0 */
                        0x00000c23, /*   [0380C] GL.FLUSH_CACHE := DEPTH=1,COLOR=1,TEXTURE=0,PE2D=0,TEXTUREVS=0,SHADER_L1=1,SHADER_L2=0,UNK10=1,UNK11=1,DESCRIPTOR_UNK12=0,DESCRIPTOR_UNK13=0 */
                        0x40000006, /* LINK (8) PREFETCH=0x6,OP=LINK */
                        0x18001350  /*   ADDRESS (WILD_ADDR) */
                    }/* [dumped cmd to 003_cmd.bin] */ ,
                    .startOffset = 0x78,
                    .size = 0x38,
                    .reservedHead = 0x20,
                    .reservedTail = 0x8,
                    .patchHead = 0x0,
                    .exitIndex = 0x0,
                    .entryPipe = 0x0,
                    .exitPipe = 0x0,
                    .next = &(_gcsQUEUE)0x0void
                },
                .next = &(_gcsQUEUE)0x0void
            },
            .shared = 0,
            .contextSwitched = 0,
            .commitStamp = 0xffffd0cce888,
            .broCoreMask = 0x1,
            .commandBuffer = &(_gcoCMDBUF)0xffffd0ccea30{
                .object = {
                    .type = 
                },
                .commitCount = ,
                .entryPipe = ,
                .exitPipe = ,
                .using2D = ,
                .using3D = ,
                .reservedHead = ,
                .reservedTail = ,
                .videoMemNode = ,
                .address = ,
                .logical = ,
                .bytes = ,
                .startOffset = ,
                .offset = ,
                .free = ,
                .lastReserve = ,
                .lastOffset = ,
                .lastLoadStatePtr = ,
                .lastLoadStateAddress = ,
                .lastLoadStateCount = ,
                .signal = ,
                .mirrors = ,
                .mirrorCount = 
            }
        }
    }
}
[seq 137] [thread 2] in={
    .command = gcvHAL_USER_SIGNAL,
    .hardwareType = gcvHARDWARE_VIP,
    .coreIndex = 0x0,
    .engine = gcvENGINE_RENDER,
    .ignoreTLS = 0,
    .commitMutex = 0,
    .u = {
        .UserSignal = {
            .command = gcvUSER_SIGNAL_WAIT,
            .id = 22526,
            .manualReset = 0,
            .wait = 0x0,
            .state = 0
        }
    }
}
[seq 138] [thread 2] out={
    .command = gcvHAL_USER_SIGNAL,
    .hardwareType = gcvHARDWARE_VIP,
    .coreIndex = 0x0,
    .status = gcvSTATUS_OK,
    .engine = gcvENGINE_RENDER,
    .ignoreTLS = 0,
    .commitMutex = 0,
    .u = {
        .UserSignal = {
            .command = gcvUSER_SIGNAL_WAIT,
            .id = 22526
        }
    }
}
/* ================================================ */
[seq 139] [thread 0] out={
    .command = gcvHAL_COMMIT,
    .hardwareType = gcvHARDWARE_VIP,
    .coreIndex = 0x0,
    .status = gcvSTATUS_OK,
    .engine = gcvENGINE_RENDER,
    .ignoreTLS = 0,
    .commitMutex = 0,
    .u = {
    }
}
/* ================================================ */
[seq 140] [thread 0] in={
    .command = gcvHAL_EVENT_COMMIT,
    .hardwareType = gcvHARDWARE_VIP,
    .coreIndex = 0x0,
    .engine = gcvENGINE_RENDER,
    .ignoreTLS = 0,
    .commitMutex = 0,
    .u = {
        .Event = {
            .queue = &(_gcsQUEUE)0xaaaaed3d6888{
                .next = &(_gcsQUEUE)0x0void,
                .iface = {
                    .command = gcvHAL_SIGNAL,
                    .hardwareType = 43690,
                    .coreIndex = 0xaee,
                    .engine = gcvENGINE_RENDER,
                    .ignoreTLS = 0,
                    .commitMutex = -791877072,
                    .u = {
                        .Signal = {
                            .signal = 0x57d8 /* id = 22488 */,
                            .auxSignal = 0x0,
                            .process = 0xd81,
                            .fromWhere = gcvKERNEL_PIXEL
                        }
                    }
                }
            },
            .broCoreMask = 0x1
        }
    }
}
[seq 141] [thread 0] out={
    .command = gcvHAL_EVENT_COMMIT,
    .hardwareType = gcvHARDWARE_VIP,
    .coreIndex = 0x0,
    .status = gcvSTATUS_OK,
    .engine = gcvENGINE_RENDER,
    .ignoreTLS = 0,
    .commitMutex = 0,
    .u = {
    }
}
/* ================================================ */
[seq 142] [thread 0] in={
    .command = gcvHAL_USER_SIGNAL,
    .hardwareType = gcvHARDWARE_VIP,
    .coreIndex = 0x0,
    .engine = gcvENGINE_RENDER,
    .ignoreTLS = 0,
    .commitMutex = 0,
    .u = {
        .UserSignal = {
            .command = gcvUSER_SIGNAL_WAIT,
            .id = 22488,
            .manualReset = 0,
            .wait = 0xffffffff,
            .state = 0
        }
    }
}
[seq 143] [thread 0] out={
    .command = gcvHAL_USER_SIGNAL,
    .hardwareType = gcvHARDWARE_VIP,
    .coreIndex = 0x0,
    .status = gcvSTATUS_OK,
    .engine = gcvENGINE_RENDER,
    .ignoreTLS = 0,
    .commitMutex = 0,
    .u = {
        .UserSignal = {
            .command = gcvUSER_SIGNAL_WAIT,
            .id = 22488
        }
    }
}
/* ================================================ */
[seq 144] [thread 0] in={
    .command = gcvHAL_USER_SIGNAL,
    .hardwareType = gcvHARDWARE_VIP,
    .coreIndex = 0x0,
    .engine = gcvENGINE_RENDER,
    .ignoreTLS = 0,
    .commitMutex = 0,
    .u = {
        .UserSignal = {
            .command = gcvUSER_SIGNAL_DESTROY,
            .id = 22525,
            .manualReset = 0,
            .wait = 0x0,
            .state = 0
        }
    }
}
[seq 145] [thread 0] out={
    .command = gcvHAL_USER_SIGNAL,
    .hardwareType = gcvHARDWARE_VIP,
    .coreIndex = 0x0,
    .status = gcvSTATUS_OK,
    .engine = gcvENGINE_RENDER,
    .ignoreTLS = 0,
    .commitMutex = 0,
    .u = {
        .UserSignal = {
            .command = gcvUSER_SIGNAL_DESTROY,
            .id = 22525
        }
    }
}
/* ================================================ */
[seq 146] [thread 0] in={
    .command = gcvHAL_USER_SIGNAL,
    .hardwareType = gcvHARDWARE_VIP,
    .coreIndex = 0x0,
    .engine = gcvENGINE_RENDER,
    .ignoreTLS = 0,
    .commitMutex = 0,
    .u = {
        .UserSignal = {
            .command = gcvUSER_SIGNAL_DESTROY,
            .id = 22526,
            .manualReset = 0,
            .wait = 0x0,
            .state = 0
        }
    }
}
[seq 147] [thread 0] out={
    .command = gcvHAL_USER_SIGNAL,
    .hardwareType = gcvHARDWARE_VIP,
    .coreIndex = 0x0,
    .status = gcvSTATUS_OK,
    .engine = gcvENGINE_RENDER,
    .ignoreTLS = 0,
    .commitMutex = 0,
    .u = {
        .UserSignal = {
            .command = gcvUSER_SIGNAL_DESTROY,
            .id = 22526
        }
    }
}
/* ================================================ */
[seq 148] [thread 0] in={
    .command = gcvHAL_EVENT_COMMIT,
    .hardwareType = gcvHARDWARE_VIP,
    .coreIndex = 0x0,
    .engine = gcvENGINE_RENDER,
    .ignoreTLS = 0,
    .commitMutex = 0,
    .u = {
        .Event = {
            .queue = &(_gcsQUEUE)0xaaaaed3d8398{
                .next = &(_gcsQUEUE)0x0void,
                .iface = {
                    .command = gcvHAL_SIGNAL,
                    .hardwareType = 43690,
                    .coreIndex = 0xd0cce720,
                    .engine = gcvENGINE_RENDER,
                    .ignoreTLS = 65535,
                    .commitMutex = -1805305975,
                    .u = {
                        .Signal = {
                            .signal = 0x57f6 /* id = 22518 */,
                            .auxSignal = 0x0,
                            .process = 0xd81,
                            .fromWhere = gcvKERNEL_PIXEL
                        }
                    }
                }
            },
            .broCoreMask = 0x1
        }
    }
}
[seq 149] [thread 0] out={
    .command = gcvHAL_EVENT_COMMIT,
    .hardwareType = gcvHARDWARE_VIP,
    .coreIndex = 0x0,
    .status = gcvSTATUS_OK,
    .engine = gcvENGINE_RENDER,
    .ignoreTLS = 0,
    .commitMutex = 0,
    .u = {
    }
}
/* ================================================ */
[seq 150] [thread 0] in={
    .command = gcvHAL_USER_SIGNAL,
    .hardwareType = gcvHARDWARE_VIP,
    .coreIndex = 0x0,
    .engine = gcvENGINE_RENDER,
    .ignoreTLS = 0,
    .commitMutex = 0,
    .u = {
        .UserSignal = {
            .command = gcvUSER_SIGNAL_WAIT,
            .id = 22518,
            .manualReset = 0,
            .wait = 0xffffffff,
            .state = 0
        }
    }
}
[seq 151] [thread 0] out={
    .command = gcvHAL_USER_SIGNAL,
    .hardwareType = gcvHARDWARE_VIP,
    .coreIndex = 0x0,
    .status = gcvSTATUS_OK,
    .engine = gcvENGINE_RENDER,
    .ignoreTLS = 0,
    .commitMutex = 0,
    .u = {
        .UserSignal = {
            .command = gcvUSER_SIGNAL_WAIT,
            .id = 22518
        }
    }
}
/* ================================================ */
[seq 152] [thread 0] in={
    .command = gcvHAL_UNLOCK_VIDEO_MEMORY,
    .hardwareType = gcvHARDWARE_VIP,
    .coreIndex = 0x0,
    .engine = gcvENGINE_RENDER,
    .ignoreTLS = 0,
    .commitMutex = 0,
    .u = {
        .UnlockVideoMemory = {
            .node = 0x5 /* ADDR_16_E */,
            .type = 0x10,
            .pool = 0x0,
            .bytes = 0x0,
            .asynchroneous = 0,
            .op = 12
        }
    }
}
[seq 153] [thread 0] out={
    .command = gcvHAL_UNLOCK_VIDEO_MEMORY,
    .hardwareType = gcvHARDWARE_VIP,
    .coreIndex = 0x0,
    .status = gcvSTATUS_OK,
    .engine = gcvENGINE_RENDER,
    .ignoreTLS = 0,
    .commitMutex = 0,
    .u = {
        .UnlockVideoMemory = {
            .node = 0x5 /* ADDR_16_E */,
            .type = 0x10,
            .pool = 0x6,
            .bytes = 0x20000,
            .asynchroneous = 1,
            .op = 12
        }
    }
}
/* ================================================ */
[seq 154] [thread 0] in={
    .command = gcvHAL_RELEASE_VIDEO_MEMORY,
    .hardwareType = gcvHARDWARE_VIP,
    .coreIndex = 0x0,
    .engine = gcvENGINE_RENDER,
    .ignoreTLS = 0,
    .commitMutex = 0,
    .u = {
        .ReleaseVideoMemory = {
            .node = 0x5 /* ADDR_16_E */
        }
    }
}
[seq 155] [thread 0] out={
    .command = gcvHAL_RELEASE_VIDEO_MEMORY,
    .hardwareType = gcvHARDWARE_VIP,
    .coreIndex = 0x0,
    .status = gcvSTATUS_OK,
    .engine = gcvENGINE_RENDER,
    .ignoreTLS = 0,
    .commitMutex = 0,
    .u = {
        .ReleaseVideoMemory = {
            .node = 0x5 /* ADDR_16_E */
        }
    }
}
/* ================================================ */
[seq 156] [thread 0] in={
    .command = gcvHAL_USER_SIGNAL,
    .hardwareType = gcvHARDWARE_VIP,
    .coreIndex = 0x0,
    .engine = gcvENGINE_RENDER,
    .ignoreTLS = 0,
    .commitMutex = 0,
    .u = {
        .UserSignal = {
            .command = gcvUSER_SIGNAL_DESTROY,
            .id = 22519,
            .manualReset = 0,
            .wait = 0x0,
            .state = 0
        }
    }
}
[seq 157] [thread 0] out={
    .command = gcvHAL_USER_SIGNAL,
    .hardwareType = gcvHARDWARE_VIP,
    .coreIndex = 0x0,
    .status = gcvSTATUS_OK,
    .engine = gcvENGINE_RENDER,
    .ignoreTLS = 0,
    .commitMutex = 0,
    .u = {
        .UserSignal = {
            .command = gcvUSER_SIGNAL_DESTROY,
            .id = 22519
        }
    }
}
/* ================================================ */
[seq 158] [thread 0] in={
    .command = gcvHAL_UNLOCK_VIDEO_MEMORY,
    .hardwareType = gcvHARDWARE_VIP,
    .coreIndex = 0x0,
    .engine = gcvENGINE_RENDER,
    .ignoreTLS = 0,
    .commitMutex = 0,
    .u = {
        .UnlockVideoMemory = {
            .node = 0x6 /* ADDR_16_F */,
            .type = 0x10,
            .pool = 0x0,
            .bytes = 0x0,
            .asynchroneous = 0,
            .op = 12
        }
    }
}
[seq 159] [thread 0] out={
    .command = gcvHAL_UNLOCK_VIDEO_MEMORY,
    .hardwareType = gcvHARDWARE_VIP,
    .coreIndex = 0x0,
    .status = gcvSTATUS_OK,
    .engine = gcvENGINE_RENDER,
    .ignoreTLS = 0,
    .commitMutex = 0,
    .u = {
        .UnlockVideoMemory = {
            .node = 0x6 /* ADDR_16_F */,
            .type = 0x10,
            .pool = 0x6,
            .bytes = 0x20000,
            .asynchroneous = 1,
            .op = 12
        }
    }
}
/* ================================================ */
[seq 160] [thread 0] in={
    .command = gcvHAL_RELEASE_VIDEO_MEMORY,
    .hardwareType = gcvHARDWARE_VIP,
    .coreIndex = 0x0,
    .engine = gcvENGINE_RENDER,
    .ignoreTLS = 0,
    .commitMutex = 0,
    .u = {
        .ReleaseVideoMemory = {
            .node = 0x6 /* ADDR_16_F */
        }
    }
}
[seq 161] [thread 0] out={
    .command = gcvHAL_RELEASE_VIDEO_MEMORY,
    .hardwareType = gcvHARDWARE_VIP,
    .coreIndex = 0x0,
    .status = gcvSTATUS_OK,
    .engine = gcvENGINE_RENDER,
    .ignoreTLS = 0,
    .commitMutex = 0,
    .u = {
        .ReleaseVideoMemory = {
            .node = 0x6 /* ADDR_16_F */
        }
    }
}
/* ================================================ */
[seq 162] [thread 0] in={
    .command = gcvHAL_USER_SIGNAL,
    .hardwareType = gcvHARDWARE_VIP,
    .coreIndex = 0x0,
    .engine = gcvENGINE_RENDER,
    .ignoreTLS = 0,
    .commitMutex = 0,
    .u = {
        .UserSignal = {
            .command = gcvUSER_SIGNAL_DESTROY,
            .id = 22522,
            .manualReset = 0,
            .wait = 0x0,
            .state = 0
        }
    }
}
[seq 163] [thread 0] out={
    .command = gcvHAL_USER_SIGNAL,
    .hardwareType = gcvHARDWARE_VIP,
    .coreIndex = 0x0,
    .status = gcvSTATUS_OK,
    .engine = gcvENGINE_RENDER,
    .ignoreTLS = 0,
    .commitMutex = 0,
    .u = {
        .UserSignal = {
            .command = gcvUSER_SIGNAL_DESTROY,
            .id = 22522
        }
    }
}
/* ================================================ */
[seq 164] [thread 0] in={
    .command = gcvHAL_DETACH,
    .hardwareType = gcvHARDWARE_VIP,
    .coreIndex = 0x0,
    .engine = gcvENGINE_RENDER,
    .ignoreTLS = 0,
    .commitMutex = 0,
    .u = {
        .Detach = {
            .context = 0xcb
        }
    }
}
[seq 165] [thread 0] out={
    .command = gcvHAL_DETACH,
    .hardwareType = gcvHARDWARE_VIP,
    .coreIndex = 0x0,
    .status = gcvSTATUS_OK,
    .engine = gcvENGINE_RENDER,
    .ignoreTLS = 0,
    .commitMutex = 0,
    .u = {
        .Detach = {
            .context = 0xcb
        }
    }
}
/* ================================================ */
[seq 166] [thread 0] in={
    .command = gcvHAL_USER_SIGNAL,
    .hardwareType = gcvHARDWARE_VIP,
    .coreIndex = 0x0,
    .engine = gcvENGINE_RENDER,
    .ignoreTLS = 0,
    .commitMutex = 0,
    .u = {
        .UserSignal = {
            .command = gcvUSER_SIGNAL_DESTROY,
            .id = 22518,
            .manualReset = 0,
            .wait = 0x0,
            .state = 0
        }
    }
}
[seq 167] [thread 0] out={
    .command = gcvHAL_USER_SIGNAL,
    .hardwareType = gcvHARDWARE_VIP,
    .coreIndex = 0x0,
    .status = gcvSTATUS_OK,
    .engine = gcvENGINE_RENDER,
    .ignoreTLS = 0,
    .commitMutex = 0,
    .u = {
        .UserSignal = {
            .command = gcvUSER_SIGNAL_DESTROY,
            .id = 22518
        }
    }
}
/* ================================================ */
[seq 168] [thread 0] in={
    .command = gcvHAL_SET_TIMEOUT,
    .hardwareType = gcvHARDWARE_VIP,
    .coreIndex = 0x0,
    .engine = gcvENGINE_RENDER,
    .ignoreTLS = 0,
    .commitMutex = 0,
    .u = {
    }
}
[seq 169] [thread 0] out={
    .command = gcvHAL_SET_TIMEOUT,
    .hardwareType = gcvHARDWARE_VIP,
    .coreIndex = 0x0,
    .status = gcvSTATUS_OK,
    .engine = gcvENGINE_RENDER,
    .ignoreTLS = 0,
    .commitMutex = 0,
    .u = {
    }
}
/* ================================================ */
[seq 170] [thread 0] in={
    .command = gcvHAL_USER_SIGNAL,
    .hardwareType = gcvHARDWARE_VIP,
    .coreIndex = 0x0,
    .engine = gcvENGINE_RENDER,
    .ignoreTLS = 0,
    .commitMutex = 0,
    .u = {
        .UserSignal = {
            .command = gcvUSER_SIGNAL_SIGNAL,
            .id = 22509,
            .manualReset = 0,
            .wait = 0x0,
            .state = 1
        }
    }
}
[seq 171] [thread 0] out={
    .command = gcvHAL_USER_SIGNAL,
    .hardwareType = gcvHARDWARE_VIP,
    .coreIndex = 0x0,
    .status = gcvSTATUS_OK,
    .engine = gcvENGINE_RENDER,
    .ignoreTLS = 0,
    .commitMutex = 0,
    .u = {
        .UserSignal = {
            .command = gcvUSER_SIGNAL_SIGNAL,
            .id = 22509
        }
    }
}
/* ================================================ */
[seq 172] [thread 0] in={
    .command = gcvHAL_USER_SIGNAL,
    .hardwareType = gcvHARDWARE_VIP,
    .coreIndex = 0x0,
    .engine = gcvENGINE_RENDER,
    .ignoreTLS = 0,
    .commitMutex = 0,
    .u = {
        .UserSignal = {
            .command = gcvUSER_SIGNAL_SIGNAL,
            .id = 22508,
            .manualReset = 0,
            .wait = 0x0,
            .state = 1
        }
    }
}
[seq 173] [thread 0] out={
    .command = gcvHAL_USER_SIGNAL,
    .hardwareType = gcvHARDWARE_VIP,
    .coreIndex = 0x0,
    .status = gcvSTATUS_OK,
    .engine = gcvENGINE_RENDER,
    .ignoreTLS = 0,
    .commitMutex = 0,
    .u = {
        .UserSignal = {
            .command = gcvUSER_SIGNAL_SIGNAL,
            .id = 22508
        }
    }
}
/* ================================================ */
[seq 174] [thread 1] out={
    .command = gcvHAL_USER_SIGNAL,
    .hardwareType = gcvHARDWARE_3D,
    .coreIndex = 0x0,
    .status = gcvSTATUS_OK,
    .engine = gcvENGINE_RENDER,
    .ignoreTLS = 0,
    .commitMutex = 0,
    .u = {
        .UserSignal = {
            .command = gcvUSER_SIGNAL_WAIT,
            .id = 22508
        }
    }
}
/* ================================================ */
[seq 175] [thread 0] in={
    .command = gcvHAL_USER_SIGNAL,
    .hardwareType = gcvHARDWARE_VIP,
    .coreIndex = 0x0,
    .engine = gcvENGINE_RENDER,
    .ignoreTLS = 0,
    .commitMutex = 0,
    .u = {
        .UserSignal = {
            .command = gcvUSER_SIGNAL_SIGNAL,
            .id = 22511,
            .manualReset = 0,
            .wait = 0x0,
            .state = 1
        }
    }
}
[seq 176] [thread 1] in={
    .command = gcvHAL_USER_SIGNAL,
    .hardwareType = gcvHARDWARE_3D,
    .coreIndex = 0x0,
    .engine = gcvENGINE_RENDER,
    .ignoreTLS = 0,
    .commitMutex = 0,
    .u = {
        .UserSignal = {
            .command = gcvUSER_SIGNAL_WAIT,
            .id = 22509,
            .manualReset = 0,
            .wait = 0x0,
            .state = 0
        }
    }
}
[seq 177] [thread 0] out={
    .command = gcvHAL_USER_SIGNAL,
    .hardwareType = gcvHARDWARE_VIP,
    .coreIndex = 0x0,
    .status = gcvSTATUS_OK,
    .engine = gcvENGINE_RENDER,
    .ignoreTLS = 0,
    .commitMutex = 0,
    .u = {
        .UserSignal = {
            .command = gcvUSER_SIGNAL_SIGNAL,
            .id = 22511
        }
    }
}
/* ================================================ */
[seq 178] [thread 0] in={
    .command = gcvHAL_USER_SIGNAL,
    .hardwareType = gcvHARDWARE_VIP,
    .coreIndex = 0x0,
    .engine = gcvENGINE_RENDER,
    .ignoreTLS = 0,
    .commitMutex = 0,
    .u = {
        .UserSignal = {
            .command = gcvUSER_SIGNAL_SIGNAL,
            .id = 22510,
            .manualReset = 0,
            .wait = 0x0,
            .state = 1
        }
    }
}
[seq 179] [thread 1] out={
    .command = gcvHAL_USER_SIGNAL,
    .hardwareType = gcvHARDWARE_3D,
    .coreIndex = 0x0,
    .status = gcvSTATUS_OK,
    .engine = gcvENGINE_RENDER,
    .ignoreTLS = 0,
    .commitMutex = 0,
    .u = {
        .UserSignal = {
            .command = gcvUSER_SIGNAL_WAIT,
            .id = 22509
        }
    }
}
/* ================================================ */
[seq 180] [thread 0] out={
    .command = gcvHAL_USER_SIGNAL,
    .hardwareType = gcvHARDWARE_VIP,
    .coreIndex = 0x0,
    .status = gcvSTATUS_OK,
    .engine = gcvENGINE_RENDER,
    .ignoreTLS = 0,
    .commitMutex = 0,
    .u = {
        .UserSignal = {
            .command = gcvUSER_SIGNAL_SIGNAL,
            .id = 22510
        }
    }
}
/* ================================================ */
[seq 181] [thread 0] in={
    .command = gcvHAL_USER_SIGNAL,
    .hardwareType = gcvHARDWARE_VIP,
    .coreIndex = 0x0,
    .engine = gcvENGINE_RENDER,
    .ignoreTLS = 0,
    .commitMutex = 0,
    .u = {
        .UserSignal = {
            .command = gcvUSER_SIGNAL_DESTROY,
            .id = 22508,
            .manualReset = 0,
            .wait = 0x0,
            .state = 0
        }
    }
}
[seq 182] [thread 0] out={
    .command = gcvHAL_USER_SIGNAL,
    .hardwareType = gcvHARDWARE_VIP,
    .coreIndex = 0x0,
    .status = gcvSTATUS_OK,
    .engine = gcvENGINE_RENDER,
    .ignoreTLS = 0,
    .commitMutex = 0,
    .u = {
        .UserSignal = {
            .command = gcvUSER_SIGNAL_DESTROY,
            .id = 22508
        }
    }
}
/* ================================================ */
[seq 183] [thread 0] in={
    .command = gcvHAL_USER_SIGNAL,
    .hardwareType = gcvHARDWARE_VIP,
    .coreIndex = 0x0,
    .engine = gcvENGINE_RENDER,
    .ignoreTLS = 0,
    .commitMutex = 0,
    .u = {
        .UserSignal = {
            .command = gcvUSER_SIGNAL_DESTROY,
            .id = 22509,
            .manualReset = 0,
            .wait = 0x0,
            .state = 0
        }
    }
}
[seq 184] [thread 0] out={
    .command = gcvHAL_USER_SIGNAL,
    .hardwareType = gcvHARDWARE_VIP,
    .coreIndex = 0x0,
    .status = gcvSTATUS_OK,
    .engine = gcvENGINE_RENDER,
    .ignoreTLS = 0,
    .commitMutex = 0,
    .u = {
        .UserSignal = {
            .command = gcvUSER_SIGNAL_DESTROY,
            .id = 22509
        }
    }
}
/* ================================================ */
[seq 185] [thread 0] in={
    .command = gcvHAL_USER_SIGNAL,
    .hardwareType = gcvHARDWARE_VIP,
    .coreIndex = 0x0,
    .engine = gcvENGINE_RENDER,
    .ignoreTLS = 0,
    .commitMutex = 0,
    .u = {
        .UserSignal = {
            .command = gcvUSER_SIGNAL_DESTROY,
            .id = 22510,
            .manualReset = 0,
            .wait = 0x0,
            .state = 0
        }
    }
}
[seq 186] [thread 0] out={
    .command = gcvHAL_USER_SIGNAL,
    .hardwareType = gcvHARDWARE_VIP,
    .coreIndex = 0x0,
    .status = gcvSTATUS_OK,
    .engine = gcvENGINE_RENDER,
    .ignoreTLS = 0,
    .commitMutex = 0,
    .u = {
        .UserSignal = {
            .command = gcvUSER_SIGNAL_DESTROY,
            .id = 22510
        }
    }
}
/* ================================================ */
[seq 187] [thread 0] in={
    .command = gcvHAL_USER_SIGNAL,
    .hardwareType = gcvHARDWARE_VIP,
    .coreIndex = 0x0,
    .engine = gcvENGINE_RENDER,
    .ignoreTLS = 0,
    .commitMutex = 0,
    .u = {
        .UserSignal = {
            .command = gcvUSER_SIGNAL_DESTROY,
            .id = 22511,
            .manualReset = 0,
            .wait = 0x0,
            .state = 0
        }
    }
}
[seq 188] [thread 0] out={
    .command = gcvHAL_USER_SIGNAL,
    .hardwareType = gcvHARDWARE_VIP,
    .coreIndex = 0x0,
    .status = gcvSTATUS_OK,
    .engine = gcvENGINE_RENDER,
    .ignoreTLS = 0,
    .commitMutex = 0,
    .u = {
        .UserSignal = {
            .command = gcvUSER_SIGNAL_DESTROY,
            .id = 22511
        }
    }
}
/* ================================================ */

====== Command stream (/home/tomeu/000_cmd.bin): ======
{
    0x00000000, /* UNKNOWN (0) */
[0m    0x00000000, /*  */
[0m    0x00000000, /* UNKNOWN (0) */
[0m    0x00000000, /*  */
[0m    0x00000000, /* UNKNOWN (0) */
[0m    0x00000000, /*  */
[0m    0x00000000, /* UNKNOWN (0) */
[0m    0x00000000, /*  */
[0m    0x0801028a, /* LOAD_STATE (1) Base: 0x00A28 Size: 1 Fixp: 0 */
[0m    0x00000011, /*   PA.SYSTEM_MODE := PROVOKING_VERTEX_LAST=1,HALF_PIXEL_CENTER=1 */
[0m    0x08010e13, /* LOAD_STATE (1) Base: 0x0384C Size: 1 Fixp: 0 */
[0m    0x00000002, /*   GL.API_MODE := OPENCL */
[0m    0x08015580, /* LOAD_STATE (1) Base: 0x15600 Size: 1 Fixp: 0 */
[0m    0x00000002, /*   SH.CONFIG := RTNE_ROUNDING=1,DUAL16=0 */
[0m    0x40000005, /* LINK (8) PREFETCH=0x5,OP=LINK */
[0m    0x180012d8, /*   ADDRESS *0x180012d8 */
[0m}

====== Command stream (/home/tomeu/001_cmd.bin): ======
{
    0x00000000, /* UNKNOWN (0) */
[0m    0x00000000, /*  */
[0m    0x00000000, /* UNKNOWN (0) */
[0m    0x00000000, /*  */
[0m    0x00000000, /* UNKNOWN (0) */
[0m    0x00000000, /*  */
[0m    0x00000000, /* UNKNOWN (0) */
[0m    0x00000000, /*  */
[0m    0x0801028a, /* LOAD_STATE (1) Base: 0x00A28 Size: 1 Fixp: 0 */
[0m    0x00000011, /*   PA.SYSTEM_MODE := PROVOKING_VERTEX_LAST=1,HALF_PIXEL_CENTER=1 */
[0m    0x08010e13, /* LOAD_STATE (1) Base: 0x0384C Size: 1 Fixp: 0 */
[0m    0x00000002, /*   GL.API_MODE := OPENCL */
[0m    0x08015580, /* LOAD_STATE (1) Base: 0x15600 Size: 1 Fixp: 0 */
[0m    0x00000002, /*   SH.CONFIG := RTNE_ROUNDING=1,DUAL16=0 */
[0m    0x40000008, /* LINK (8) PREFETCH=0x8,OP=LINK */
[0m    0x18001300, /*   ADDRESS *0x18001300 */
[0m}
