====== IOCTL stream: ======
[driver version 6.4.4.310723]
[seq 1] [thread 0] in={
    .command = gcvHAL_VERSION,
    .hardwareType = gcvHARDWARE_INVALID,
    .coreIndex = 0x0,
    .engine = gcvENGINE_RENDER,
    .ignoreTLS = 1,
    .commitMutex = 0,
    .u = {
        .Version = {
            .major = 0,
            .minor = 0,
            .patch = 0,
            .build = 0x0
        }
    }
}
[seq 2] [thread 0] out={
    .command = gcvHAL_VERSION,
    .hardwareType = gcvHARDWARE_INVALID,
    .coreIndex = 0x0,
    .status = gcvSTATUS_OK,
    .engine = gcvENGINE_RENDER,
    .ignoreTLS = 1,
    .commitMutex = 0,
    .u = {
        .Version = {
            .major = 6,
            .minor = 4,
            .patch = 4,
            .build = 0x4bdc3
        }
    }
}
/* ================================================ */
[seq 3] [thread 0] in={
    .command = gcvHAL_CHIP_INFO,
    .hardwareType = gcvHARDWARE_INVALID,
    .coreIndex = 0x0,
    .engine = gcvENGINE_RENDER,
    .ignoreTLS = 1,
    .commitMutex = 0,
    .u = {
        .ChipInfo = {
            .count = 6,
            .types = ,
            .ids = ,
            .coreIndexs = 
        }
    }
}
[seq 4] [thread 0] out={
    .command = gcvHAL_CHIP_INFO,
    .hardwareType = gcvHARDWARE_INVALID,
    .coreIndex = 0x0,
    .status = gcvSTATUS_OK,
    .engine = gcvENGINE_RENDER,
    .ignoreTLS = 1,
    .commitMutex = 0,
    .u = {
        .ChipInfo = {
            .count = 1,
            .types = ,
            .ids = ,
            .coreIndexs = 
        }
    }
}
/* ================================================ */
[seq 5] [thread 0] in={
    .command = gcvHAL_QUERY_VIDEO_MEMORY,
    .hardwareType = gcvHARDWARE_3D,
    .coreIndex = 0x0,
    .engine = gcvENGINE_RENDER,
    .ignoreTLS = 1,
    .commitMutex = 0,
    .u = {
    }
}
[seq 6] [thread 0] out={
    .command = gcvHAL_QUERY_VIDEO_MEMORY,
    .hardwareType = gcvHARDWARE_3D,
    .coreIndex = 0x0,
    .status = gcvSTATUS_OK,
    .engine = gcvENGINE_RENDER,
    .ignoreTLS = 1,
    .commitMutex = 0,
    .u = {
        .QueryVideoMemory = {
            .internalPhysName = 0x0,
            .internalSize = 0x0,
            .externalPhysName = 0x0,
            .externalSize = 0x0,
            .contiguousPhysName = 0x4,
            .contiguousSize = 0x400000,
            .exclusivePhysName = 0x0,
            .exclusiveSize = 0x0
        }
    }
}
/* ================================================ */
[seq 7] [thread 0] in={
    .command = gcvHAL_QUERY_CHIP_IDENTITY,
    .hardwareType = gcvHARDWARE_VIP,
    .coreIndex = 0x0,
    .engine = 93,
    .ignoreTLS = 0,
    .commitMutex = -1471504232,
    .u = {
    }
}
[seq 8] [thread 0] out={
    .command = gcvHAL_QUERY_CHIP_IDENTITY,
    .hardwareType = gcvHARDWARE_VIP,
    .coreIndex = 0x0,
    .status = gcvSTATUS_OK,
    .engine = 93,
    .ignoreTLS = 0,
    .commitMutex = -1471504232,
    .u = {
        .QueryChipIdentity = {
            .chipModel = gcv8000,
            .chipRevision = 0x7120,
            .chipDate = 0x20180807,
            .chipFeatures = 0xe0287cad /* FAST_CLEAR PIPE_3D DXT_TEXTURE_COMPRESSION Z_COMPRESSION MSAA ETC1_TEXTURE_COMPRESSION FAST_SCALER HIGH_DYNAMIC_RANGE YUV420_TILER MODULE_CG BYTE_WRITE_2D YUY2_AVERAGING BYTE_WRITE_3D RS_YUV_TARGET 32_BIT_INDICES */,
            .chipMinorFeatures = 0xc9799eff /* FLIP_Y DUAL_RETURN_BUS ENDIANNESS_CONFIG TEXTURE_8K CORRECT_TEXTURE_CONVERTER SPECIAL_MSAA_LOD FAST_CLEAR_FLUSH 2DPE20 RENDERTARGET_8K 2BITPERTILE SEPARATE_TILE_STATUS_WHEN_INTERLEAVED SUPER_TILED COMPRESSION_FIFO_FIXED HAS_SIGN_FLOOR_CEIL SHADER_HAS_W HAS_SQRT_TRIG MORE_MINOR_FEATURES MC20 BUG_FIXES0 HZ CORRECT_STENCIL ENHANCE_VR */,
            .chipMinorFeatures1 = 0xfefbfadb /* RSUV_SWIZZLE V2_COMPRESSION EXTRA_EVENT_STATES NO_STRIPING_NEEDED BUG_FIXES3 AUTO_DISABLE DISABLE_PE_GATING HALF_FLOAT PIXEL_DITHER TWO_STENCIL_REFERENCE EXTENDED_PIXEL_FORMAT CORRECT_MIN_MAX_DEPTH 2D_DITHER BUG_FIXES5 NEW_FP TEXTURE_HALIGN NON_POWER_OF_TWO LINEAR_TEXTURE_SUPPORT HALTI0 NEGATIVE_LOG_FIX RESOLVE_OFFSET OK_TO_GATE_AXI_CLOCK MMU_VERSION WIDE_LINE BUG_FIXES6 FC_FLUSH_STALL */,
            .chipMinorFeatures2 = 0xeb9d4fbf /* LINE_LOOP LOGIC_OP SEAMLESS_CUBE_MAP SUPERTILED_TEXTURE LINEAR_PE RECT_PRIMITIVE CORRECT_AUTO_DISABLE_COUNT PE_SWIZZLE END_EVENT S1S8 HALTI1 DYNAMIC_FREQUENCY_SCALING FULL_DIRECTFB THREAD_WALKER_IN_PS TILE_FILLER YUV_STANDARD FLUSH_FIXED_2D INTERLEAVER MIXED_STREAMS BUG_FIXES7 TEXTURE_TILED_READ DECOMPRESS_Z16 BUG_FIXES8 */,
            .chipMinorFeatures3 = 0xedfffcff /* ROTATION_STALL_FIX OCL_ONLY 2D_MULTI_SOURCE_BLT_EX INSTRUCTION_CACHE GEOMETRY_SHADER TEX_COMPRESSION_SUPERTILED GENERICS BUG_FIXES9 BUG_FIXES10 UNIFIED_SAMPLERS BUG_FIXES11 PERFORMANCE_COUNTERS HAS_FAST_TRANSCENDENTALS BUG_FIXES12 BUG_FIXES13 DE_ENHANCEMENTS1 ACE TX_ENHANCEMENTS1 SH_ENHANCEMENTS1 SH_ENHANCEMENTS2 PE_ENHANCEMENTS1 2D_FC_SOURCE BUG_FIXES_14 NEW_HZ PE_DITHER_FIX SH_ENHANCEMENTS3 SH_ENHANCEMENTS4 TX_ENHANCEMENTS2 */,
            .chipMinorFeatures4 = 0xdb0dafc7 /* FE_ENHANCEMENTS1 PE_ENHANCEMENTS2 FRUSTUM_CLIP_FIX SINGLE_BUFFER HI_ENHANCEMENTS_1 TX_ENHANCEMENTS_3 SH_ENHANCEMENTS_5 FE_ENHANCEMENTS_2 TX_LERP_PRECISION_FIX TEXTURE_ASTC MC_ENHANCEMENTS_1 HALTI2 SMALL_MSAA BUG_FIXES_17 ZFIXES BUG_FIXES18 PROBE MEDIUM_PRECISION BUG_FIXES19 SH_ENHANCEMENTS6 */,
            .chipMinorFeatures5 = 0xbb5ac733 /* SH_ENHANCEMENTS7 BUG_FIXES20 EEZ BUG_FIXES21 BUG_FIXES22 HALTI3 TESSELATION_SHADERS HALTI4 RA_WRITE_DEPTH HAS_PRODUCTID S8_MSAA_COMPRESSION PE_DITHER_FIX2 FE_ALLOW_RND_VTX_CNT TX_6BIT_FRAC FE_ALLOW_STALL_PREFETCH_ENG RS_DEPTHSTENCIL_NATIVE_SUPPORT V2_MSAA_COMP_FIX HALTI5 BLT_ENGINE */,
            .chipMinorFeatures6 = 0x1 /* BUG_FIXES_23 */,
            .streamCount = 0x8,
            .pixelPipes = 0x1,
            .resolvePipes = 0x0,
            .instructionCount = 0x200,
            .numConstants = 0x140,
            .varyingsCount = 0x10,
            .gpuCoreCount = 0x1,
            .clusterAvailMask = 0x0,
            .productID = 0x45080009,
            .chipFlags = gcvCHIP_AXI_BUS128_BITS,
            .ecoID = 0x0,
            .customerID = 0x88,
            .sRAMBases = ,
            .sRAMSizes = ,
            .platformFlagBits = 0x0,
            .registerAPB = 0x300000,
            .nnClusterNum = 0x1
        }
    }
}
/* ================================================ */
[seq 9] [thread 0] in={
    .command = gcvHAL_QUERY_CHIP_OPTION,
    .hardwareType = gcvHARDWARE_VIP,
    .coreIndex = 0x0,
    .engine = 93,
    .ignoreTLS = 0,
    .commitMutex = -1471504232,
    .u = {
    }
}
[seq 10] [thread 0] out={
    .command = gcvHAL_QUERY_CHIP_OPTION,
    .hardwareType = gcvHARDWARE_VIP,
    .coreIndex = 0x0,
    .status = gcvSTATUS_OK,
    .engine = 93,
    .ignoreTLS = 0,
    .commitMutex = -1471504232,
    .u = {
    }
}
/* ================================================ */
[seq 11] [thread 0] in={
    .command = gcvHAL_ATTACH,
    .hardwareType = gcvHARDWARE_VIP,
    .coreIndex = 0x0,
    .engine = 84887982,
    .ignoreTLS = 0,
    .commitMutex = -1473026120,
    .u = {
        .Attach = {
            .context = 0xa8b07690,
            .maxState = 0x100000001,
            .numStates = 0x0,
            .map = 0,
            .logicals = ,
            .bytes = 0xfb55e120
        }
    }
}
[seq 12] [thread 0] out={
    .command = gcvHAL_ATTACH,
    .hardwareType = gcvHARDWARE_VIP,
    .coreIndex = 0x0,
    .status = gcvSTATUS_OK,
    .engine = 84887982,
    .ignoreTLS = 0,
    .commitMutex = -1473026120,
    .u = {
        .Attach = {
            .context = 0x7,
            .maxState = 0xdd00,
            .numStates = 0x864,
            .map = 0,
            .logicals = ,
            .bytes = 0xfb55e120
        }
    }
}
/* ================================================ */
[seq 13] [thread 0] in={
    .command = gcvHAL_USER_SIGNAL,
    .hardwareType = gcvHARDWARE_VIP,
    .coreIndex = 0x0,
    .engine = gcvENGINE_RENDER,
    .ignoreTLS = 0,
    .commitMutex = 0,
    .u = {
        .UserSignal = {
            .command = gcvUSER_SIGNAL_CREATE,
            .id = 0,
            .manualReset = 0,
            .wait = 0x0,
            .state = 0
        }
    }
}
[seq 14] [thread 0] out={
    .command = gcvHAL_USER_SIGNAL,
    .hardwareType = gcvHARDWARE_VIP,
    .coreIndex = 0x0,
    .status = gcvSTATUS_OK,
    .engine = gcvENGINE_RENDER,
    .ignoreTLS = 0,
    .commitMutex = 0,
    .u = {
        .UserSignal = {
            .command = gcvUSER_SIGNAL_CREATE,
            .id = 87267
        }
    }
}
/* ================================================ */
[seq 15] [thread 0] in={
    .command = gcvHAL_GET_BASE_ADDRESS,
    .hardwareType = gcvHARDWARE_VIP,
    .coreIndex = 0x0,
    .engine = gcvENGINE_RENDER,
    .ignoreTLS = 0,
    .commitMutex = 0,
    .u = {
    }
}
[seq 16] [thread 0] out={
    .command = gcvHAL_GET_BASE_ADDRESS,
    .hardwareType = gcvHARDWARE_VIP,
    .coreIndex = 0x0,
    .status = gcvSTATUS_OK,
    .engine = gcvENGINE_RENDER,
    .ignoreTLS = 0,
    .commitMutex = 0,
    .u = {
        .GetBaseAddress = {
            .baseAddress = 0x0,
            .flatMappingRangeCount = 0x2,
            .flatMappingRanges = 
        }
    }
}
/* ================================================ */
[seq 17] [thread 0] in={
    .command = gcvHAL_USER_SIGNAL,
    .hardwareType = gcvHARDWARE_VIP,
    .coreIndex = 0x0,
    .engine = gcvENGINE_RENDER,
    .ignoreTLS = 0,
    .commitMutex = 0,
    .u = {
        .UserSignal = {
            .command = gcvUSER_SIGNAL_CREATE,
            .id = 0,
            .manualReset = 0,
            .wait = 0x0,
            .state = 0
        }
    }
}
[seq 18] [thread 0] out={
    .command = gcvHAL_USER_SIGNAL,
    .hardwareType = gcvHARDWARE_VIP,
    .coreIndex = 0x0,
    .status = gcvSTATUS_OK,
    .engine = gcvENGINE_RENDER,
    .ignoreTLS = 0,
    .commitMutex = 0,
    .u = {
        .UserSignal = {
            .command = gcvUSER_SIGNAL_CREATE,
            .id = 87268
        }
    }
}
/* ================================================ */
[seq 19] [thread 0] in={
    .command = gcvHAL_USER_SIGNAL,
    .hardwareType = gcvHARDWARE_VIP,
    .coreIndex = 0x0,
    .engine = gcvENGINE_RENDER,
    .ignoreTLS = 0,
    .commitMutex = 0,
    .u = {
        .UserSignal = {
            .command = gcvUSER_SIGNAL_SIGNAL,
            .id = 87268,
            .manualReset = 0,
            .wait = 0x0,
            .state = 1
        }
    }
}
[seq 20] [thread 0] out={
    .command = gcvHAL_USER_SIGNAL,
    .hardwareType = gcvHARDWARE_VIP,
    .coreIndex = 0x0,
    .status = gcvSTATUS_OK,
    .engine = gcvENGINE_RENDER,
    .ignoreTLS = 0,
    .commitMutex = 0,
    .u = {
        .UserSignal = {
            .command = gcvUSER_SIGNAL_SIGNAL,
            .id = 87268
        }
    }
}
/* ================================================ */
[seq 21] [thread 0] in={
    .command = gcvHAL_ALLOCATE_LINEAR_VIDEO_MEMORY,
    .hardwareType = gcvHARDWARE_VIP,
    .coreIndex = 0x0,
    .engine = gcvENGINE_RENDER,
    .ignoreTLS = 0,
    .commitMutex = 0,
    .u = {
        .AllocateLinearVideoMemory = {
            .bytes = 0x20000,
            .alignment = 0x8,
            .type = 0x10,
            .flag = 0x0,
            .pool = 0x1,
            .sRAMIndex = 0,
            .extSRAMIndex = 0
        }
    }
}
[seq 22] [thread 0] out={
    .command = gcvHAL_ALLOCATE_LINEAR_VIDEO_MEMORY,
    .hardwareType = gcvHARDWARE_VIP,
    .coreIndex = 0x0,
    .status = gcvSTATUS_OK,
    .engine = gcvENGINE_RENDER,
    .ignoreTLS = 0,
    .commitMutex = 0,
    .u = {
        .AllocateLinearVideoMemory = {
            .node = 0x1 /* ADDR_16_A */
        }
    }
}
/* ================================================ */
[seq 23] [thread 0] in={
    .command = gcvHAL_LOCK_VIDEO_MEMORY,
    .hardwareType = gcvHARDWARE_VIP,
    .coreIndex = 0x0,
    .engine = gcvENGINE_RENDER,
    .ignoreTLS = 0,
    .commitMutex = 0,
    .u = {
        .LockVideoMemory = {
            .node = 0x1 /* ADDR_16_A */,
            .cacheable = 0,
            .gid = 0x0,
            .op = 3
        }
    }
}
[seq 24] [thread 0] out={
    .command = gcvHAL_LOCK_VIDEO_MEMORY,
    .hardwareType = gcvHARDWARE_VIP,
    .coreIndex = 0x0,
    .status = gcvSTATUS_OK,
    .engine = gcvENGINE_RENDER,
    .ignoreTLS = 0,
    .commitMutex = 0,
    .u = {
        .LockVideoMemory = {
            .cacheable = 0,
            .address = 0x18008c28 /* ADDR_16_A */,
            .memory = 0xffffa69c8c28,
            .gid = 0x0,
            .physicalAddress = 0x18008c28,
            .op = 3
        }
    }
}
/* ================================================ */
[seq 25] [thread 0] in={
    .command = gcvHAL_USER_SIGNAL,
    .hardwareType = gcvHARDWARE_VIP,
    .coreIndex = 0x0,
    .engine = gcvENGINE_RENDER,
    .ignoreTLS = 0,
    .commitMutex = 0,
    .u = {
        .UserSignal = {
            .command = gcvUSER_SIGNAL_CREATE,
            .id = 0,
            .manualReset = 0,
            .wait = 0x0,
            .state = 0
        }
    }
}
[seq 26] [thread 0] out={
    .command = gcvHAL_USER_SIGNAL,
    .hardwareType = gcvHARDWARE_VIP,
    .coreIndex = 0x0,
    .status = gcvSTATUS_OK,
    .engine = gcvENGINE_RENDER,
    .ignoreTLS = 0,
    .commitMutex = 0,
    .u = {
        .UserSignal = {
            .command = gcvUSER_SIGNAL_CREATE,
            .id = 87271
        }
    }
}
/* ================================================ */
[seq 27] [thread 0] in={
    .command = gcvHAL_USER_SIGNAL,
    .hardwareType = gcvHARDWARE_VIP,
    .coreIndex = 0x0,
    .engine = gcvENGINE_RENDER,
    .ignoreTLS = 0,
    .commitMutex = 0,
    .u = {
        .UserSignal = {
            .command = gcvUSER_SIGNAL_SIGNAL,
            .id = 87271,
            .manualReset = 0,
            .wait = 0x0,
            .state = 1
        }
    }
}
[seq 28] [thread 0] out={
    .command = gcvHAL_USER_SIGNAL,
    .hardwareType = gcvHARDWARE_VIP,
    .coreIndex = 0x0,
    .status = gcvSTATUS_OK,
    .engine = gcvENGINE_RENDER,
    .ignoreTLS = 0,
    .commitMutex = 0,
    .u = {
        .UserSignal = {
            .command = gcvUSER_SIGNAL_SIGNAL,
            .id = 87271
        }
    }
}
/* ================================================ */
[seq 29] [thread 0] in={
    .command = gcvHAL_ALLOCATE_LINEAR_VIDEO_MEMORY,
    .hardwareType = gcvHARDWARE_VIP,
    .coreIndex = 0x0,
    .engine = gcvENGINE_RENDER,
    .ignoreTLS = 0,
    .commitMutex = 0,
    .u = {
        .AllocateLinearVideoMemory = {
            .bytes = 0x20000,
            .alignment = 0x8,
            .type = 0x10,
            .flag = 0x0,
            .pool = 0x1,
            .sRAMIndex = 0,
            .extSRAMIndex = 0
        }
    }
}
[seq 30] [thread 0] out={
    .command = gcvHAL_ALLOCATE_LINEAR_VIDEO_MEMORY,
    .hardwareType = gcvHARDWARE_VIP,
    .coreIndex = 0x0,
    .status = gcvSTATUS_OK,
    .engine = gcvENGINE_RENDER,
    .ignoreTLS = 0,
    .commitMutex = 0,
    .u = {
        .AllocateLinearVideoMemory = {
            .node = 0x2 /* ADDR_16_B */
        }
    }
}
/* ================================================ */
[seq 31] [thread 0] in={
    .command = gcvHAL_LOCK_VIDEO_MEMORY,
    .hardwareType = gcvHARDWARE_VIP,
    .coreIndex = 0x0,
    .engine = gcvENGINE_RENDER,
    .ignoreTLS = 0,
    .commitMutex = 0,
    .u = {
        .LockVideoMemory = {
            .node = 0x2 /* ADDR_16_B */,
            .cacheable = 0,
            .gid = 0x0,
            .op = 3
        }
    }
}
[seq 32] [thread 0] out={
    .command = gcvHAL_LOCK_VIDEO_MEMORY,
    .hardwareType = gcvHARDWARE_VIP,
    .coreIndex = 0x0,
    .status = gcvSTATUS_OK,
    .engine = gcvENGINE_RENDER,
    .ignoreTLS = 0,
    .commitMutex = 0,
    .u = {
        .LockVideoMemory = {
            .cacheable = 0,
            .address = 0x18028c28 /* ADDR_16_B */,
            .memory = 0xffffa69e8c28,
            .gid = 0x0,
            .physicalAddress = 0x18028c28,
            .op = 3
        }
    }
}
/* ================================================ */
[seq 33] [thread 0] in={
    .command = gcvHAL_USER_SIGNAL,
    .hardwareType = gcvHARDWARE_VIP,
    .coreIndex = 0x0,
    .engine = gcvENGINE_RENDER,
    .ignoreTLS = 0,
    .commitMutex = 0,
    .u = {
        .UserSignal = {
            .command = gcvUSER_SIGNAL_WAIT,
            .id = 87268,
            .manualReset = 0,
            .wait = 0x0,
            .state = 0
        }
    }
}
[seq 34] [thread 0] out={
    .command = gcvHAL_USER_SIGNAL,
    .hardwareType = gcvHARDWARE_VIP,
    .coreIndex = 0x0,
    .status = gcvSTATUS_OK,
    .engine = gcvENGINE_RENDER,
    .ignoreTLS = 0,
    .commitMutex = 0,
    .u = {
        .UserSignal = {
            .command = gcvUSER_SIGNAL_WAIT,
            .id = 87268
        }
    }
}
/* ================================================ */
[seq 35] [thread 0] in={
    .command = gcvHAL_QUERY_CHIP_FREQUENCY,
    .hardwareType = gcvHARDWARE_VIP,
    .coreIndex = 0x0,
    .engine = gcvENGINE_RENDER,
    .ignoreTLS = 0,
    .commitMutex = -1249903248,
    .u = {
        .QueryChipFrequency = {
            .mcClk = 0x0,
            .shClk = 0x0
        }
    }
}
[seq 36] [thread 0] out={
    .command = gcvHAL_QUERY_CHIP_FREQUENCY,
    .hardwareType = gcvHARDWARE_VIP,
    .coreIndex = 0x0,
    .status = gcvSTATUS_OK,
    .engine = gcvENGINE_RENDER,
    .ignoreTLS = 0,
    .commitMutex = -1249903248,
    .u = {
        .QueryChipFrequency = {
            .mcClk = 0x2faf045a,
            .shClk = 0x2faeef59
        }
    }
}
/* ================================================ */
[seq 37] [thread 0] in={
    .command = gcvHAL_QUERY_CHIP_IDENTITY,
    .hardwareType = gcvHARDWARE_VIP,
    .coreIndex = 0x0,
    .engine = 93,
    .ignoreTLS = 0,
    .commitMutex = -1471504232,
    .u = {
    }
}
[seq 38] [thread 0] out={
    .command = gcvHAL_QUERY_CHIP_IDENTITY,
    .hardwareType = gcvHARDWARE_VIP,
    .coreIndex = 0x0,
    .status = gcvSTATUS_OK,
    .engine = 93,
    .ignoreTLS = 0,
    .commitMutex = -1471504232,
    .u = {
        .QueryChipIdentity = {
            .chipModel = gcv8000,
            .chipRevision = 0x7120,
            .chipDate = 0x20180807,
            .chipFeatures = 0xe0287cad /* FAST_CLEAR PIPE_3D DXT_TEXTURE_COMPRESSION Z_COMPRESSION MSAA ETC1_TEXTURE_COMPRESSION FAST_SCALER HIGH_DYNAMIC_RANGE YUV420_TILER MODULE_CG BYTE_WRITE_2D YUY2_AVERAGING BYTE_WRITE_3D RS_YUV_TARGET 32_BIT_INDICES */,
            .chipMinorFeatures = 0xc9799eff /* FLIP_Y DUAL_RETURN_BUS ENDIANNESS_CONFIG TEXTURE_8K CORRECT_TEXTURE_CONVERTER SPECIAL_MSAA_LOD FAST_CLEAR_FLUSH 2DPE20 RENDERTARGET_8K 2BITPERTILE SEPARATE_TILE_STATUS_WHEN_INTERLEAVED SUPER_TILED COMPRESSION_FIFO_FIXED HAS_SIGN_FLOOR_CEIL SHADER_HAS_W HAS_SQRT_TRIG MORE_MINOR_FEATURES MC20 BUG_FIXES0 HZ CORRECT_STENCIL ENHANCE_VR */,
            .chipMinorFeatures1 = 0xfefbfadb /* RSUV_SWIZZLE V2_COMPRESSION EXTRA_EVENT_STATES NO_STRIPING_NEEDED BUG_FIXES3 AUTO_DISABLE DISABLE_PE_GATING HALF_FLOAT PIXEL_DITHER TWO_STENCIL_REFERENCE EXTENDED_PIXEL_FORMAT CORRECT_MIN_MAX_DEPTH 2D_DITHER BUG_FIXES5 NEW_FP TEXTURE_HALIGN NON_POWER_OF_TWO LINEAR_TEXTURE_SUPPORT HALTI0 NEGATIVE_LOG_FIX RESOLVE_OFFSET OK_TO_GATE_AXI_CLOCK MMU_VERSION WIDE_LINE BUG_FIXES6 FC_FLUSH_STALL */,
            .chipMinorFeatures2 = 0xeb9d4fbf /* LINE_LOOP LOGIC_OP SEAMLESS_CUBE_MAP SUPERTILED_TEXTURE LINEAR_PE RECT_PRIMITIVE CORRECT_AUTO_DISABLE_COUNT PE_SWIZZLE END_EVENT S1S8 HALTI1 DYNAMIC_FREQUENCY_SCALING FULL_DIRECTFB THREAD_WALKER_IN_PS TILE_FILLER YUV_STANDARD FLUSH_FIXED_2D INTERLEAVER MIXED_STREAMS BUG_FIXES7 TEXTURE_TILED_READ DECOMPRESS_Z16 BUG_FIXES8 */,
            .chipMinorFeatures3 = 0xedfffcff /* ROTATION_STALL_FIX OCL_ONLY 2D_MULTI_SOURCE_BLT_EX INSTRUCTION_CACHE GEOMETRY_SHADER TEX_COMPRESSION_SUPERTILED GENERICS BUG_FIXES9 BUG_FIXES10 UNIFIED_SAMPLERS BUG_FIXES11 PERFORMANCE_COUNTERS HAS_FAST_TRANSCENDENTALS BUG_FIXES12 BUG_FIXES13 DE_ENHANCEMENTS1 ACE TX_ENHANCEMENTS1 SH_ENHANCEMENTS1 SH_ENHANCEMENTS2 PE_ENHANCEMENTS1 2D_FC_SOURCE BUG_FIXES_14 NEW_HZ PE_DITHER_FIX SH_ENHANCEMENTS3 SH_ENHANCEMENTS4 TX_ENHANCEMENTS2 */,
            .chipMinorFeatures4 = 0xdb0dafc7 /* FE_ENHANCEMENTS1 PE_ENHANCEMENTS2 FRUSTUM_CLIP_FIX SINGLE_BUFFER HI_ENHANCEMENTS_1 TX_ENHANCEMENTS_3 SH_ENHANCEMENTS_5 FE_ENHANCEMENTS_2 TX_LERP_PRECISION_FIX TEXTURE_ASTC MC_ENHANCEMENTS_1 HALTI2 SMALL_MSAA BUG_FIXES_17 ZFIXES BUG_FIXES18 PROBE MEDIUM_PRECISION BUG_FIXES19 SH_ENHANCEMENTS6 */,
            .chipMinorFeatures5 = 0xbb5ac733 /* SH_ENHANCEMENTS7 BUG_FIXES20 EEZ BUG_FIXES21 BUG_FIXES22 HALTI3 TESSELATION_SHADERS HALTI4 RA_WRITE_DEPTH HAS_PRODUCTID S8_MSAA_COMPRESSION PE_DITHER_FIX2 FE_ALLOW_RND_VTX_CNT TX_6BIT_FRAC FE_ALLOW_STALL_PREFETCH_ENG RS_DEPTHSTENCIL_NATIVE_SUPPORT V2_MSAA_COMP_FIX HALTI5 BLT_ENGINE */,
            .chipMinorFeatures6 = 0x1 /* BUG_FIXES_23 */,
            .streamCount = 0x8,
            .pixelPipes = 0x1,
            .resolvePipes = 0x0,
            .instructionCount = 0x200,
            .numConstants = 0x140,
            .varyingsCount = 0x10,
            .gpuCoreCount = 0x1,
            .clusterAvailMask = 0x0,
            .productID = 0x45080009,
            .chipFlags = gcvCHIP_AXI_BUS128_BITS,
            .ecoID = 0x0,
            .customerID = 0x88,
            .sRAMBases = ,
            .sRAMSizes = ,
            .platformFlagBits = 0x0,
            .registerAPB = 0x300000,
            .nnClusterNum = 0x1
        }
    }
}
/* ================================================ */
[seq 39] [thread 0] in={
    .command = gcvHAL_QUERY_CHIP_OPTION,
    .hardwareType = gcvHARDWARE_VIP,
    .coreIndex = 0x0,
    .engine = 93,
    .ignoreTLS = 0,
    .commitMutex = -1471504232,
    .u = {
    }
}
[seq 40] [thread 0] out={
    .command = gcvHAL_QUERY_CHIP_OPTION,
    .hardwareType = gcvHARDWARE_VIP,
    .coreIndex = 0x0,
    .status = gcvSTATUS_OK,
    .engine = 93,
    .ignoreTLS = 0,
    .commitMutex = -1471504232,
    .u = {
    }
}
/* ================================================ */
[seq 41] [thread 0] in={
    .command = gcvHAL_ATTACH,
    .hardwareType = gcvHARDWARE_VIP,
    .coreIndex = 0x0,
    .engine = 93,
    .ignoreTLS = 0,
    .commitMutex = -1471504232,
    .u = {
        .Attach = {
            .context = 0x0,
            .maxState = 0x100000001,
            .numStates = 0x0,
            .map = 0,
            .logicals = ,
            .bytes = 0x0
        }
    }
}
[seq 42] [thread 0] out={
    .command = gcvHAL_ATTACH,
    .hardwareType = gcvHARDWARE_VIP,
    .coreIndex = 0x0,
    .status = gcvSTATUS_OK,
    .engine = 93,
    .ignoreTLS = 0,
    .commitMutex = -1471504232,
    .u = {
        .Attach = {
            .context = 0x8,
            .maxState = 0xdd00,
            .numStates = 0x864,
            .map = 0,
            .logicals = ,
            .bytes = 0x0
        }
    }
}
/* ================================================ */
[seq 43] [thread 0] in={
    .command = gcvHAL_USER_SIGNAL,
    .hardwareType = gcvHARDWARE_VIP,
    .coreIndex = 0x0,
    .engine = gcvENGINE_RENDER,
    .ignoreTLS = 0,
    .commitMutex = 0,
    .u = {
        .UserSignal = {
            .command = gcvUSER_SIGNAL_CREATE,
            .id = 0,
            .manualReset = 0,
            .wait = 0x0,
            .state = 0
        }
    }
}
[seq 44] [thread 0] out={
    .command = gcvHAL_USER_SIGNAL,
    .hardwareType = gcvHARDWARE_VIP,
    .coreIndex = 0x0,
    .status = gcvSTATUS_OK,
    .engine = gcvENGINE_RENDER,
    .ignoreTLS = 0,
    .commitMutex = 0,
    .u = {
        .UserSignal = {
            .command = gcvUSER_SIGNAL_CREATE,
            .id = 87280
        }
    }
}
/* ================================================ */
[seq 45] [thread 0] in={
    .command = gcvHAL_GET_BASE_ADDRESS,
    .hardwareType = gcvHARDWARE_VIP,
    .coreIndex = 0x0,
    .engine = gcvENGINE_RENDER,
    .ignoreTLS = 0,
    .commitMutex = 0,
    .u = {
    }
}
[seq 46] [thread 0] out={
    .command = gcvHAL_GET_BASE_ADDRESS,
    .hardwareType = gcvHARDWARE_VIP,
    .coreIndex = 0x0,
    .status = gcvSTATUS_OK,
    .engine = gcvENGINE_RENDER,
    .ignoreTLS = 0,
    .commitMutex = 0,
    .u = {
        .GetBaseAddress = {
            .baseAddress = 0x0,
            .flatMappingRangeCount = 0x2,
            .flatMappingRanges = 
        }
    }
}
/* ================================================ */
[seq 47] [thread 0] in={
    .command = gcvHAL_USER_SIGNAL,
    .hardwareType = gcvHARDWARE_VIP,
    .coreIndex = 0x0,
    .engine = gcvENGINE_RENDER,
    .ignoreTLS = 0,
    .commitMutex = 0,
    .u = {
        .UserSignal = {
            .command = gcvUSER_SIGNAL_CREATE,
            .id = 0,
            .manualReset = 0,
            .wait = 0x0,
            .state = 0
        }
    }
}
[seq 48] [thread 0] out={
    .command = gcvHAL_USER_SIGNAL,
    .hardwareType = gcvHARDWARE_VIP,
    .coreIndex = 0x0,
    .status = gcvSTATUS_OK,
    .engine = gcvENGINE_RENDER,
    .ignoreTLS = 0,
    .commitMutex = 0,
    .u = {
        .UserSignal = {
            .command = gcvUSER_SIGNAL_CREATE,
            .id = 87281
        }
    }
}
/* ================================================ */
[seq 49] [thread 0] in={
    .command = gcvHAL_USER_SIGNAL,
    .hardwareType = gcvHARDWARE_VIP,
    .coreIndex = 0x0,
    .engine = gcvENGINE_RENDER,
    .ignoreTLS = 0,
    .commitMutex = 0,
    .u = {
        .UserSignal = {
            .command = gcvUSER_SIGNAL_SIGNAL,
            .id = 87281,
            .manualReset = 0,
            .wait = 0x0,
            .state = 1
        }
    }
}
[seq 50] [thread 0] out={
    .command = gcvHAL_USER_SIGNAL,
    .hardwareType = gcvHARDWARE_VIP,
    .coreIndex = 0x0,
    .status = gcvSTATUS_OK,
    .engine = gcvENGINE_RENDER,
    .ignoreTLS = 0,
    .commitMutex = 0,
    .u = {
        .UserSignal = {
            .command = gcvUSER_SIGNAL_SIGNAL,
            .id = 87281
        }
    }
}
/* ================================================ */
[seq 51] [thread 0] in={
    .command = gcvHAL_ALLOCATE_LINEAR_VIDEO_MEMORY,
    .hardwareType = gcvHARDWARE_VIP,
    .coreIndex = 0x0,
    .engine = gcvENGINE_RENDER,
    .ignoreTLS = 0,
    .commitMutex = 0,
    .u = {
        .AllocateLinearVideoMemory = {
            .bytes = 0x20000,
            .alignment = 0x8,
            .type = 0x10,
            .flag = 0x0,
            .pool = 0x1,
            .sRAMIndex = 0,
            .extSRAMIndex = 0
        }
    }
}
[seq 52] [thread 0] out={
    .command = gcvHAL_ALLOCATE_LINEAR_VIDEO_MEMORY,
    .hardwareType = gcvHARDWARE_VIP,
    .coreIndex = 0x0,
    .status = gcvSTATUS_OK,
    .engine = gcvENGINE_RENDER,
    .ignoreTLS = 0,
    .commitMutex = 0,
    .u = {
        .AllocateLinearVideoMemory = {
            .node = 0x3 /* ADDR_16_C */
        }
    }
}
/* ================================================ */
[seq 53] [thread 0] in={
    .command = gcvHAL_LOCK_VIDEO_MEMORY,
    .hardwareType = gcvHARDWARE_VIP,
    .coreIndex = 0x0,
    .engine = gcvENGINE_RENDER,
    .ignoreTLS = 0,
    .commitMutex = 0,
    .u = {
        .LockVideoMemory = {
            .node = 0x3 /* ADDR_16_C */,
            .cacheable = 0,
            .gid = 0x0,
            .op = 3
        }
    }
}
[seq 54] [thread 0] out={
    .command = gcvHAL_LOCK_VIDEO_MEMORY,
    .hardwareType = gcvHARDWARE_VIP,
    .coreIndex = 0x0,
    .status = gcvSTATUS_OK,
    .engine = gcvENGINE_RENDER,
    .ignoreTLS = 0,
    .commitMutex = 0,
    .u = {
        .LockVideoMemory = {
            .cacheable = 0,
            .address = 0x1804d5a8 /* ADDR_16_C */,
            .memory = 0xffffa6a0d5a8,
            .gid = 0x0,
            .physicalAddress = 0x1804d5a8,
            .op = 3
        }
    }
}
/* ================================================ */
[seq 55] [thread 0] in={
    .command = gcvHAL_USER_SIGNAL,
    .hardwareType = gcvHARDWARE_VIP,
    .coreIndex = 0x0,
    .engine = gcvENGINE_RENDER,
    .ignoreTLS = 0,
    .commitMutex = 0,
    .u = {
        .UserSignal = {
            .command = gcvUSER_SIGNAL_CREATE,
            .id = 0,
            .manualReset = 0,
            .wait = 0x0,
            .state = 0
        }
    }
}
[seq 56] [thread 0] out={
    .command = gcvHAL_USER_SIGNAL,
    .hardwareType = gcvHARDWARE_VIP,
    .coreIndex = 0x0,
    .status = gcvSTATUS_OK,
    .engine = gcvENGINE_RENDER,
    .ignoreTLS = 0,
    .commitMutex = 0,
    .u = {
        .UserSignal = {
            .command = gcvUSER_SIGNAL_CREATE,
            .id = 87284
        }
    }
}
/* ================================================ */
[seq 57] [thread 0] in={
    .command = gcvHAL_USER_SIGNAL,
    .hardwareType = gcvHARDWARE_VIP,
    .coreIndex = 0x0,
    .engine = gcvENGINE_RENDER,
    .ignoreTLS = 0,
    .commitMutex = 0,
    .u = {
        .UserSignal = {
            .command = gcvUSER_SIGNAL_SIGNAL,
            .id = 87284,
            .manualReset = 0,
            .wait = 0x0,
            .state = 1
        }
    }
}
[seq 58] [thread 0] out={
    .command = gcvHAL_USER_SIGNAL,
    .hardwareType = gcvHARDWARE_VIP,
    .coreIndex = 0x0,
    .status = gcvSTATUS_OK,
    .engine = gcvENGINE_RENDER,
    .ignoreTLS = 0,
    .commitMutex = 0,
    .u = {
        .UserSignal = {
            .command = gcvUSER_SIGNAL_SIGNAL,
            .id = 87284
        }
    }
}
/* ================================================ */
[seq 59] [thread 0] in={
    .command = gcvHAL_ALLOCATE_LINEAR_VIDEO_MEMORY,
    .hardwareType = gcvHARDWARE_VIP,
    .coreIndex = 0x0,
    .engine = gcvENGINE_RENDER,
    .ignoreTLS = 0,
    .commitMutex = 0,
    .u = {
        .AllocateLinearVideoMemory = {
            .bytes = 0x20000,
            .alignment = 0x8,
            .type = 0x10,
            .flag = 0x0,
            .pool = 0x1,
            .sRAMIndex = 0,
            .extSRAMIndex = 0
        }
    }
}
[seq 60] [thread 0] out={
    .command = gcvHAL_ALLOCATE_LINEAR_VIDEO_MEMORY,
    .hardwareType = gcvHARDWARE_VIP,
    .coreIndex = 0x0,
    .status = gcvSTATUS_OK,
    .engine = gcvENGINE_RENDER,
    .ignoreTLS = 0,
    .commitMutex = 0,
    .u = {
        .AllocateLinearVideoMemory = {
            .node = 0x4 /* ADDR_16_D */
        }
    }
}
/* ================================================ */
[seq 61] [thread 0] in={
    .command = gcvHAL_LOCK_VIDEO_MEMORY,
    .hardwareType = gcvHARDWARE_VIP,
    .coreIndex = 0x0,
    .engine = gcvENGINE_RENDER,
    .ignoreTLS = 0,
    .commitMutex = 0,
    .u = {
        .LockVideoMemory = {
            .node = 0x4 /* ADDR_16_D */,
            .cacheable = 0,
            .gid = 0x0,
            .op = 3
        }
    }
}
[seq 62] [thread 0] out={
    .command = gcvHAL_LOCK_VIDEO_MEMORY,
    .hardwareType = gcvHARDWARE_VIP,
    .coreIndex = 0x0,
    .status = gcvSTATUS_OK,
    .engine = gcvENGINE_RENDER,
    .ignoreTLS = 0,
    .commitMutex = 0,
    .u = {
        .LockVideoMemory = {
            .cacheable = 0,
            .address = 0x1806d5a8 /* ADDR_16_D */,
            .memory = 0xffffa6a2d5a8,
            .gid = 0x0,
            .physicalAddress = 0x1806d5a8,
            .op = 3
        }
    }
}
/* ================================================ */
[seq 63] [thread 0] in={
    .command = gcvHAL_USER_SIGNAL,
    .hardwareType = gcvHARDWARE_VIP,
    .coreIndex = 0x0,
    .engine = gcvENGINE_RENDER,
    .ignoreTLS = 0,
    .commitMutex = 0,
    .u = {
        .UserSignal = {
            .command = gcvUSER_SIGNAL_WAIT,
            .id = 87281,
            .manualReset = 0,
            .wait = 0x0,
            .state = 0
        }
    }
}
[seq 64] [thread 0] out={
    .command = gcvHAL_USER_SIGNAL,
    .hardwareType = gcvHARDWARE_VIP,
    .coreIndex = 0x0,
    .status = gcvSTATUS_OK,
    .engine = gcvENGINE_RENDER,
    .ignoreTLS = 0,
    .commitMutex = 0,
    .u = {
        .UserSignal = {
            .command = gcvUSER_SIGNAL_WAIT,
            .id = 87281
        }
    }
}
/* ================================================ */
